…
cat_acquisition_order,name,weight,age\n
1,Nick,9,17\n
2,Margot,7,16\n
3,Little Guy,13,4\n
```

Each line represents a row of data, and each field is separated by a comma (`,`).  We can read this kind of data into `R` by using the `read_csv()` function (this is a nicer version of the default `read.csv()` function, and we get access to it by loading `tidyverse` with `library(tidyverse)`).


```r
read_csv(file = "data/clt-berry-data.csv")
```

```
## # A tibble: 7,507 × 92
##    `Subject Code` `Participant Name` Gender Age   `Start Time (UTC)`
##             <dbl>              <dbl> <lgl>  <lgl> <chr>             
##  1           1001               1001 NA     NA    6/13/2019 21:05   
##  2           1001               1001 NA     NA    6/13/2019 20:55   
##  3           1001               1001 NA     NA    6/13/2019 20:49   
##  4           1001               1001 NA     NA    6/13/2019 20:45   
##  5           1001               1001 NA     NA    6/13/2019 21:00   
##  6           1001               1001 NA     NA    6/13/2019 21:10   
##  7           1002               1002 NA     NA    6/13/2019 20:08   
##  8           1002               1002 NA     NA    6/13/2019 19:57   
##  9           1002               1002 NA     NA    6/13/2019 20:13   
## 10           1002               1002 NA     NA    6/13/2019 20:03   
## # ℹ 7,497 more rows
## # ℹ 87 more variables: `End Time (UTC)` <chr>, `Serving Position` <dbl>,
## #   `Sample Identifier` <dbl>, `Sample Name` <chr>, `9pt_appearance` <dbl>,
## #   pre_expectation <dbl>, jar_color <dbl>, jar_gloss <dbl>, jar_size <dbl>,
## #   cata_appearance_unevencolor <dbl>, cata_appearance_misshapen <dbl>,
## #   cata_appearance_creased <dbl>, cata_appearance_seedy <dbl>,
## #   cata_appearance_bruised <dbl>, cata_appearance_notfresh <dbl>, …
```

```r
read_csv(file = "data/CiderDryness_SensoryDATA.csv")
```

```
## # A tibble: 288 × 27
##    Sample_Name Temperature Panelist_Code MerlynScale_Ranking Fresh_Apples
##    <chr>       <chr>       <chr>                       <dbl>        <dbl>
##  1 1911 Est.   Chilled     001                           2.3            1
##  2 Buskey      Chilled     001                           3.5            1
##  3 Eden        Chilled     001                           2.8            0
##  4 1911 Est.   RT          001                           4.2            0
##  5 Buskey      RT          001                           2              0
##  6 Eden        RT          001                           4              0
##  7 1911 Est.   Chilled     002                           3              1
##  8 Buskey      Chilled     002                           3.3            0
##  9 Eden        Chilled     002                           3.5            1
## 10 1911 Est.   RT          002                           4.5            0
## # ℹ 278 more rows
## # ℹ 22 more variables: Fermented <dbl>, Herbal <dbl>, Dry <dbl>, Spice <dbl>,
## #   Fruity <dbl>, Smooth <dbl>, Alcohol <dbl>, Light <dbl>, Sweet <dbl>,
## #   Woody <dbl>, Berries <dbl>, Sour <dbl>, Funky <dbl>, FullBodied <dbl>,
## #   Metallic <dbl>, Floral <dbl>, Candy <dbl>, Bitter <dbl>, Vomit <dbl>,
## #   Earthy <dbl>, Synthetic <dbl>, Liking <dbl>
```
…
While I am not going to go over much of the base `R` syntax, I want to talk about one particular tool that is becoming standard in modern `R` coding: the **pipe**, which is written in `tidyverse` as `%>%`.  This garbage-looking set of symbols is actually your best friend, you just don't know it yet.  I use this tool constantly in my `R` programming.

OK, enough background, what the heck _is_ a pipe?  The term "pipe" comes from what it does: like a pipe, `%>%` lets whatever is on its left side flow through to the right hand side.  It is easiest to read `%>%` as "**AND THEN**". 


```r
raw_berry_data %>%                         # Start with the berry_data
  filter(berry == "blackberry") %>%        # AND THEN filter to blackberries
  select(`Sample Name`,                    # AND THEN select sample name, overall liking...
         contains("_overall"), 
         contains("cata_"))
```

```
## # A tibble: 1,495 × 40
##    `Sample Name` `9pt_overall` us_overall lms_overall cata_appearance_unevenco…¹
##    <chr>                 <dbl>      <dbl>       <dbl>                      <dbl>
##  1 Blackberry 4              2         NA          NA                          0
##  2 Blackberry 2              5         NA          NA                          0
##  3 Blackberry 1              8         NA          NA                          0
##  4 Blackberry 3              6         NA          NA                          0
##  5 Blackberry 5              8         NA          NA                          0
##  6 Blackberry 4              6         NA          NA                          0
##  7 Blackberry 2              1         NA          NA                          0
##  8 Blackberry 1              8         NA          NA                          0
##  9 Blackberry 3              8         NA          NA                          0
## 10 Blackberry 5              8         NA          NA                          0
## # ℹ 1,485 more rows
## # ℹ abbreviated name: ¹​cata_appearance_unevencolor
## # ℹ 35 more variables: cata_appearance_misshapen <dbl>,
## #   cata_appearance_creased <dbl>, cata_appearance_seedy <dbl>,
## #   cata_appearance_bruised <dbl>, cata_appearance_notfresh <dbl>,
## #   cata_appearance_fresh <dbl>, cata_appearance_goodshape <dbl>,
## #   cata_appearance_goodquality <dbl>, cata_appearance_none <dbl>, …
```
…
#### Creating new columns: `mutate()`

Let's start with the simpler operation: creating new columns (variables) based on existing ones.  

We do this above in our workflow `mutate()`.  Often, we want to create a new column temporarily, or to combine several existing columns.  We can do this using the `mutate()` function.  Let's (for the moment) only consider the 9-pt hedonic scale, and create a variable that tells us whether the rating is higher than some cutoff (say 6/9, a common cutoff).


```r
berry_columns %>%
  select(berry, sample, `9pt_overall`) %>%  # we select these for easy printing
  mutate(good = `9pt_overall` > 6)
```

```
## # A tibble: 7,507 × 4
##    berry     sample `9pt_overall` good 
##    <chr>      <dbl>         <dbl> <lgl>
##  1 raspberry      6             4 FALSE
##  2 raspberry      5             9 TRUE 
##  3 raspberry      2             3 FALSE
##  4 raspberry      3             7 TRUE 
##  5 raspberry      4             4 FALSE
##  6 raspberry      1             4 FALSE
##  7 raspberry      6             4 FALSE
##  8 raspberry      5             7 TRUE 
##  9 raspberry      2             7 TRUE 
## 10 raspberry      3             9 TRUE 
## # ℹ 7,497 more rows
```
…
**NB:** Sometimes we want to simultaneously `select()` and `mutate()` columns; the `transmute()` function is a simple wrapper for both of these operations combined and is quite useful for longer and more complex workflows. The `.keep` argument of `mutate()` can also be used to keep a subset of columns, rather than the whole tibble.

#### Pivoting: `pivot_longer()`/`pivot_wider()`

A key concept motivating the `tidyverse` is the idea of ["tidy" data](https://r4ds.hadley.nz/data-tidy#sec-tidy-data), which is typically also tied to the ability to move between ["long" and "wide" data](https://datacarpentry.org/r-socialsci/instructor/04-tidyr.html#reshaping-with-pivot_wider-and-pivot_longer).  Typically, tidy data means data that is "long", although I don't know if I am convinced that it is an exact 1-to-1 map.

Frequently, sensory data is recorded "wide", with *experimental units* in rows and all of the *measured or observed variables* on those experimental units in the columns.  Our cider data is a great example:


```r
raw_cider_data
```

```
## # A tibble: 288 × 27
##    Sample_Name Temperature Panelist_Code MerlynScale_Ranking Fresh_Apples
##    <chr>       <chr>       <chr>                       <dbl>        <dbl>
##  1 1911 Est.   Chilled     001                           2.3            1
##  2 Buskey      Chilled     001                           3.5            1
##  3 Eden        Chilled     001                           2.8            0
##  4 1911 Est.   RT          001                           4.2            0
##  5 Buskey      RT          001                           2              0
##  6 Eden        RT          001                           4              0
##  7 1911 Est.   Chilled     002                           3              1
##  8 Buskey      Chilled     002                           3.3            0
##  9 Eden        Chilled     002                           3.5            1
## 10 1911 Est.   RT          002                           4.5            0
## # ℹ 278 more rows
## # ℹ 22 more variables: Fermented <dbl>, Herbal <dbl>, Dry <dbl>, Spice <dbl>,
## #   Fruity <dbl>, Smooth <dbl>, Alcohol <dbl>, Light <dbl>, Sweet <dbl>,
## #   Woody <dbl>, Berries <dbl>, Sour <dbl>, Funky <dbl>, FullBodied <dbl>,
## #   Metallic <dbl>, Floral <dbl>, Candy <dbl>, Bitter <dbl>, Vomit <dbl>,
## #   Earthy <dbl>, Synthetic <dbl>, Liking <dbl>
```
…
The `pivot_*()` functions are the tools to accomplish this.  They are remarkably simple and powerful tools for transforming data from wide to long (and vice-versa) as the [analysis demands](#cider).


```r
long_cider_data <- 
  raw_cider_data %>%
  pivot_longer(cols = Fresh_Apples:Synthetic,
               names_to = "cata_variable",
               values_to = "checked")

long_cider_data
```

```
## # A tibble: 6,336 × 7
##    Sample_Name Temperature Panelist_Code MerlynScale_Ranking Liking
##    <chr>       <chr>       <chr>                       <dbl>  <dbl>
##  1 1911 Est.   Chilled     001                           2.3      6
##  2 1911 Est.   Chilled     001                           2.3      6
##  3 1911 Est.   Chilled     001                           2.3      6
##  4 1911 Est.   Chilled     001                           2.3      6
##  5 1911 Est.   Chilled     001                           2.3      6
##  6 1911 Est.   Chilled     001                           2.3      6
##  7 1911 Est.   Chilled     001                           2.3      6
##  8 1911 Est.   Chilled     001                           2.3      6
##  9 1911 Est.   Chilled     001                           2.3      6
## 10 1911 Est.   Chilled     001                           2.3      6
## # ℹ 6,326 more rows
## # ℹ 2 more variables: cata_variable <chr>, checked <dbl>
```
…
```r
long_berry_data <- 
  berry_columns %>%
  pivot_longer(cols = contains("overall"),
               names_to = "hedonic_scale",
               values_to = "rating",
               values_drop_na = TRUE)

long_berry_data %>%
  select(berry, sample, hedonic_scale, rating)
```

```
## # A tibble: 7,507 × 4
##    berry     sample hedonic_scale rating
##    <chr>      <dbl> <chr>          <dbl>
##  1 raspberry      6 9pt_overall        4
##  2 raspberry      5 9pt_overall        9
##  3 raspberry      2 9pt_overall        3
##  4 raspberry      3 9pt_overall        7
##  5 raspberry      4 9pt_overall        4
##  6 raspberry      1 9pt_overall        4
##  7 raspberry      6 9pt_overall        4
##  8 raspberry      5 9pt_overall        7
##  9 raspberry      2 9pt_overall        7
## 10 raspberry      3 9pt_overall        9
## # ℹ 7,497 more rows
```
…
```r
long_berry_data <- 
  long_berry_data %>%
  pivot_longer(starts_with("cata_"),
               names_to = "cata_variable",
               values_to = "checked",
               names_prefix = "cata_",
               values_drop_na = TRUE)

long_berry_data
```

```
## # A tibble: 159,741 × 7
##    `Subject Code` berry     sample hedonic_scale rating cata_variable    checked
##             <dbl> <chr>      <dbl> <chr>          <dbl> <chr>              <dbl>
##  1           1001 raspberry      6 9pt_overall        4 appearance_unev…       0
##  2           1001 raspberry      6 9pt_overall        4 appearance_miss…       1
##  3           1001 raspberry      6 9pt_overall        4 appearance_crea…       0
##  4           1001 raspberry      6 9pt_overall        4 appearance_seedy       0
##  5           1001 raspberry      6 9pt_overall        4 appearance_brui…       0
##  6           1001 raspberry      6 9pt_overall        4 appearance_notf…       1
##  7           1001 raspberry      6 9pt_overall        4 appearance_fresh       0
##  8           1001 raspberry      6 9pt_overall        4 appearance_good…       0
##  9           1001 raspberry      6 9pt_overall        4 appearance_good…       0
## 10           1001 raspberry      6 9pt_overall        4 appearance_none        0
## # ℹ 159,731 more rows
```

Here, notice we once again drop `NA` values because some CATA variables only applied to some berries (e.g., raspberries had different CATA attributes than strawberries, natch).  We also used a shortcut in `pivot_longer()` to remove the `"cata_"` prefix from each CATA variable name, purely to make them more readable.  

While we don't use `pivot_wider()` in the flow above, it does the opposite of `pivot_longer()`: provided with a column of ID variables (like the CATA variables) and a column containing observations, it produces a wider, less tidy data frame.  This is most frequently useful when getting data ready for some kind of multivariate analysis, like a regression or SVD.  We can see the effects on our long cider data.


```r
long_cider_data %>%
  pivot_wider(names_from = cata_variable,
              values_from = checked)
```

```
## # A tibble: 288 × 27
##    Sample_Name Temperature Panelist_Code MerlynScale_Ranking Liking Fresh_Apples
##    <chr>       <chr>       <chr>                       <dbl>  <dbl>        <dbl>
##  1 1911 Est.   Chilled     001                           2.3      6            1
##  2 Buskey      Chilled     001                           3.5      7            1
##  3 Eden        Chilled     001                           2.8      4            0
##  4 1911 Est.   RT          001                           4.2      2            0
##  5 Buskey      RT          001                           2        7            0
##  6 Eden        RT          001                           4        5            0
##  7 1911 Est.   Chilled     002                           3        8            1
##  8 Buskey      Chilled     002                           3.3      6            0
##  9 Eden        Chilled     002                           3.5      7            1
## 10 1911 Est.   RT          002                           4.5      3            0
## # ℹ 278 more rows
## # ℹ 21 more variables: Fermented <dbl>, Herbal <dbl>, Dry <dbl>, Spice <dbl>,
## #   Fruity <dbl>, Smooth <dbl>, Alcohol <dbl>, Light <dbl>, Sweet <dbl>,
## #   Woody <dbl>, Berries <dbl>, Sour <dbl>, Funky <dbl>, FullBodied <dbl>,
## #   Metallic <dbl>, Floral <dbl>, Candy <dbl>, Bitter <dbl>, Vomit <dbl>,
## #   Earthy <dbl>, Synthetic <dbl>
```
…
  group_by(berry, sample) %>%
  
  # And now we *apply* a set of summary functions to each group (berry x sample
  # #) and then *combine* the analyses to get a summary table
  
  summarize(mean = mean(us_overall),
            sd = sd(us_overall),
            n = n(),
            se = sd / sqrt(n),
            ll = mean - 2 * se,
            ul = mean + 2 * se)
```

```
## # A tibble: 23 × 8
## # Groups:   berry [4]
##    berry      sample  mean    sd     n    se    ll    ul
##    <chr>       <dbl> <dbl> <dbl> <int> <dbl> <dbl> <dbl>
##  1 blackberry      1  7.60  4.09    98 0.413  6.78  8.43
##  2 blackberry      2  6.5   3.91    98 0.395  5.71  7.29
##  3 blackberry      3  8.48  3.93    98 0.397  7.69  9.27
##  4 blackberry      4  8.86  3.91    98 0.395  8.07  9.65
##  5 blackberry      5  8.26  4.11    98 0.415  7.43  9.08
##  6 blueberry       1  9.47  3.25   103 0.321  8.82 10.1 
##  7 blueberry       2  9.30  3.62   103 0.357  8.59 10.0 
##  8 blueberry       3  9.01  3.79   103 0.374  8.26  9.76
##  9 blueberry       4  8.67  3.67   103 0.361  7.95  9.39
## 10 blueberry       5  9.23  3.91   103 0.386  8.46 10.0 
## # ℹ 13 more rows
```
…
  mutate(proportion = count / sum(count)) %>%

  # We use ungroup() because leaving groups in a data frame can have unexpected
  # results if we forget that we've specified them.
  
  ungroup()

cider_penalty_data
```

```
## # A tibble: 44 × 5
##    cata_variable checked rating count proportion
##    <chr>           <dbl>  <dbl> <int>      <dbl>
##  1 Alcohol             0   5.56   178     0.618 
##  2 Alcohol             1   4.91   110     0.382 
##  3 Berries             0   5.18   264     0.917 
##  4 Berries             1   6.71    24     0.0833
##  5 Bitter              0   5.68   220     0.764 
##  6 Bitter              1   4.10    68     0.236 
##  7 Candy               0   5.25   271     0.941 
##  8 Candy               1   6.24    17     0.0590
##  9 Dry                 0   5.69   177     0.615 
## 10 Dry                 1   4.69   111     0.385 
## # ℹ 34 more rows
```
…
```r
berry_penalty_data <- 
  long_berry_data %>%
  group_by(berry, cata_variable, checked) %>%
  summarize(penalty_lift = mean(rating),
            count = n()) %>%
  ungroup() 

berry_penalty_data
```

```
## # A tibble: 170 × 5
##    berry      cata_variable          checked penalty_lift count
##    <chr>      <chr>                    <dbl>        <dbl> <int>
##  1 blackberry appearance_fresh             0         4.70   518
##  2 blackberry appearance_fresh             1         5.80   977
##  3 blackberry appearance_goodcolor         0         4.63   458
##  4 blackberry appearance_goodcolor         1         5.77  1037
##  5 blackberry appearance_goodquality       0         4.69   636
##  6 blackberry appearance_goodquality       1         5.96   859
##  7 blackberry appearance_goodshapre        0         4.93   708
##  8 blackberry appearance_goodshapre        1         5.86   787
##  9 blackberry appearance_misshapen         0         5.63  1048
## 10 blackberry appearance_misshapen         1         4.92   447
## # ℹ 160 more rows
```
…
While we have only reviewed what I consider the "basic" functionality of `tidyverse` for data wrangling, hopefully this gives you a good idea of the powerful and pretty user-friendly tools provided to you through this package.  I wanted to mention a few very basic tools that also make tasks typically painful in `R` easy.

#### Renaming columns

Renaming data frames in `R` is harder than you might think.  With the tools we've just learned, you might realize that, for example, you could probably use some combination of `select()` and `mutate()`/`transmute()` to rename columns, but I make heavy use of the appropriately-named `rename()` function to easily change the name of variables:


```r
berry_penalty_data %>%
  rename(penalty = penalty_lift)
```

```
## # A tibble: 170 × 5
##    berry      cata_variable          checked penalty count
##    <chr>      <chr>                    <dbl>   <dbl> <int>
##  1 blackberry appearance_fresh             0    4.70   518
##  2 blackberry appearance_fresh             1    5.80   977
##  3 blackberry appearance_goodcolor         0    4.63   458
##  4 blackberry appearance_goodcolor         1    5.77  1037
##  5 blackberry appearance_goodquality       0    4.69   636
##  6 blackberry appearance_goodquality       1    5.96   859
##  7 blackberry appearance_goodshapre        0    4.93   708
##  8 blackberry appearance_goodshapre        1    5.86   787
##  9 blackberry appearance_misshapen         0    5.63  1048
## 10 blackberry appearance_misshapen         1    4.92   447
## # ℹ 160 more rows
```
…
