…
```
## Rows: 7507 Columns: 92
## ── Column specification ────────────────────────────────────────────────────────
## Delimiter: ","
## chr  (7): Start Time (UTC), End Time (UTC), Sample Name, verbal_likes, verba...
## dbl (83): Subject Code, Participant Name, Serving Position, Sample Identifie...
## lgl  (2): Gender, Age
## 
## ℹ Use `spec()` to retrieve the full column specification for this data.
## ℹ Specify the column types or set `show_col_types = FALSE` to quiet this message.
```

```
## # A tibble: 7,507 × 92
##    `Subject Code` `Participant Name` Gender Age   `Start Time (UTC)`
##             <dbl>              <dbl> <lgl>  <lgl> <chr>             
##  1           1001               1001 NA     NA    6/13/2019 21:05   
##  2           1001               1001 NA     NA    6/13/2019 20:55   
##  3           1001               1001 NA     NA    6/13/2019 20:49   
##  4           1001               1001 NA     NA    6/13/2019 20:45   
##  5           1001               1001 NA     NA    6/13/2019 21:00   
##  6           1001               1001 NA     NA    6/13/2019 21:10   
##  7           1002               1002 NA     NA    6/13/2019 20:08   
##  8           1002               1002 NA     NA    6/13/2019 19:57   
##  9           1002               1002 NA     NA    6/13/2019 20:13   
## 10           1002               1002 NA     NA    6/13/2019 20:03   
## # ℹ 7,497 more rows
## # ℹ 87 more variables: `End Time (UTC)` <chr>, `Serving Position` <dbl>,
## #   `Sample Identifier` <dbl>, `Sample Name` <chr>, `9pt_appearance` <dbl>,
## #   pre_expectation <dbl>, jar_color <dbl>, jar_gloss <dbl>, jar_size <dbl>,
## #   cata_appearance_unevencolor <dbl>, cata_appearance_misshapen <dbl>,
## #   cata_appearance_creased <dbl>, cata_appearance_seedy <dbl>,
## #   cata_appearance_bruised <dbl>, cata_appearance_notfresh <dbl>, …
```
…
If we only want to subset on a specific dimension and get everything from the other dimension, we just leave it blank.


```r
berry_data[, 1] # get all rows of the 1st column
```

```
## # A tibble: 7,507 × 1
##    `Subject Code`
##             <dbl>
##  1           1001
##  2           1001
##  3           1001
##  4           1001
##  5           1001
##  6           1001
##  7           1002
##  8           1002
##  9           1002
## 10           1002
## # ℹ 7,497 more rows
```

We can also use logical subsetting, just like in vectors.  This is very powerful but a bit complicated, so we are going to introduce some `tidyverse` based operators to do this that will make it a lot easier.  I will just give an example:


```r
berry_data[berry_data$berry == "raspberry", ] # get all raspberry data
```

```
## # A tibble: 2,148 × 92
##    `Subject Code` `Participant Name` Gender Age   `Start Time (UTC)`
##             <dbl>              <dbl> <lgl>  <lgl> <chr>             
##  1           1001               1001 NA     NA    6/13/2019 21:05   
##  2           1001               1001 NA     NA    6/13/2019 20:55   
##  3           1001               1001 NA     NA    6/13/2019 20:49   
##  4           1001               1001 NA     NA    6/13/2019 20:45   
##  5           1001               1001 NA     NA    6/13/2019 21:00   
##  6           1001               1001 NA     NA    6/13/2019 21:10   
##  7           1002               1002 NA     NA    6/13/2019 20:08   
##  8           1002               1002 NA     NA    6/13/2019 19:57   
##  9           1002               1002 NA     NA    6/13/2019 20:13   
## 10           1002               1002 NA     NA    6/13/2019 20:03   
## # ℹ 2,138 more rows
## # ℹ 87 more variables: `End Time (UTC)` <chr>, `Serving Position` <dbl>,
## #   `Sample Identifier` <dbl>, `Sample Name` <chr>, `9pt_appearance` <dbl>,
## #   pre_expectation <dbl>, jar_color <dbl>, jar_gloss <dbl>, jar_size <dbl>,
## #   cata_appearance_unevencolor <dbl>, cata_appearance_misshapen <dbl>,
## #   cata_appearance_creased <dbl>, cata_appearance_seedy <dbl>,
## #   cata_appearance_bruised <dbl>, cata_appearance_notfresh <dbl>, …
```
…
