…
So, for example, we might want to try to reverse engineer the way that the `rating` is generated from the sub-modalities, in which case perhaps we only want the last 6 columns.  We learned previously that we can do this with numeric indexing:


```r
beer_data[, 9:14]
```

```
## # A tibble: 20,359 × 6
##    appearance aroma palate taste overall rating
##         <dbl> <dbl>  <dbl> <dbl>   <dbl>  <dbl>
##  1        5     4      4     4.5     5     4.46
##  2        5     3.5    4     3.5     4     3.74
##  3        4     3      3     3.5     3     3.26
##  4        3.5   3.5    3.5   3.5     3.5   3.5 
##  5        4     3      4     4.5     3.5   3.86
##  6        4     3      2.5   3       3.5   3.11
##  7        3.5   3.5    4     3.5     3.5   3.55
##  8        4     3      3     3       3     3.06
##  9        4     4      4     4       4     4   
## 10        4     3      3.5   3       3.5   3.21
## # ℹ 20,349 more rows
```
…
The `select()` function in `tidyverse` (actually from the `dplyr` package) is the smarter, easier way to do this.  It works on data frames, and it can be read as "from \<data frame\>, select the columns that meet the criteria we've set." 

`select(<data frame>, <column 1>, <column 2>, ...)`

The simplest way to use `select()` is just to name the columns you want!


```r
select(beer_data, appearance, aroma, palate, taste, overall, rating) # note the lack of quoting on the column names
```

```
## # A tibble: 20,359 × 6
##    appearance aroma palate taste overall rating
##         <dbl> <dbl>  <dbl> <dbl>   <dbl>  <dbl>
##  1        5     4      4     4.5     5     4.46
##  2        5     3.5    4     3.5     4     3.74
##  3        4     3      3     3.5     3     3.26
##  4        3.5   3.5    3.5   3.5     3.5   3.5 
##  5        4     3      4     4.5     3.5   3.86
##  6        4     3      2.5   3       3.5   3.11
##  7        3.5   3.5    4     3.5     3.5   3.55
##  8        4     3      3     3       3     3.06
##  9        4     4      4     4       4     4   
## 10        4     3      3.5   3       3.5   3.21
## # ℹ 20,349 more rows
```

This is much clearer to the reader.

You can also use `select()` with a number of helper functions, which use logic to select columns that meet whatever conditions you set.  For example, the `starts_with()` helper function lets us give a set of characters we want columns to start with:


```r
select(beer_data, starts_with("beer"))
```

```
## # A tibble: 20,359 × 2
##    beer_name           beer_id
##    <chr>                 <dbl>
##  1 Caffrey's Irish Ale     825
##  2 Caffrey's Irish Ale     825
##  3 Caffrey's Irish Ale     825
##  4 Caffrey's Irish Ale     825
##  5 Caffrey's Irish Ale     825
##  6 Caffrey's Irish Ale     825
##  7 Caffrey's Irish Ale     825
##  8 Caffrey's Irish Ale     825
##  9 Caffrey's Irish Ale     825
## 10 Caffrey's Irish Ale     825
## # ℹ 20,349 more rows
```

There are equivalents for the end of column names (`ends_with()`) and text found anywhere in the name (`contains()`). 

You can combine these statements together to get subsets of columns however you want:


```r
select(beer_data, starts_with("beer"), rating, abv)
```

```
## # A tibble: 20,359 × 4
##    beer_name           beer_id rating   abv
##    <chr>                 <dbl>  <dbl> <dbl>
##  1 Caffrey's Irish Ale     825   4.46   3.8
##  2 Caffrey's Irish Ale     825   3.74   3.8
##  3 Caffrey's Irish Ale     825   3.26   3.8
##  4 Caffrey's Irish Ale     825   3.5    3.8
##  5 Caffrey's Irish Ale     825   3.86   3.8
##  6 Caffrey's Irish Ale     825   3.11   3.8
##  7 Caffrey's Irish Ale     825   3.55   3.8
##  8 Caffrey's Irish Ale     825   3.06   3.8
##  9 Caffrey's Irish Ale     825   4      3.8
## 10 Caffrey's Irish Ale     825   3.21   3.8
## # ℹ 20,349 more rows
```

You can also use programmatic logic in `select()` by using the `where()` helper function, which gives you the ability to specify columns by any arbitrary function.


```r
select(beer_data, where(~is.numeric(.)))
```

```
## # A tibble: 20,359 × 9
##    beer_id brewery_id   abv appearance aroma palate taste overall rating
##      <dbl>      <dbl> <dbl>      <dbl> <dbl>  <dbl> <dbl>   <dbl>  <dbl>
##  1     825        297   3.8        5     4      4     4.5     5     4.46
##  2     825        297   3.8        5     3.5    4     3.5     4     3.74
##  3     825        297   3.8        4     3      3     3.5     3     3.26
##  4     825        297   3.8        3.5   3.5    3.5   3.5     3.5   3.5 
##  5     825        297   3.8        4     3      4     4.5     3.5   3.86
##  6     825        297   3.8        4     3      2.5   3       3.5   3.11
##  7     825        297   3.8        3.5   3.5    4     3.5     3.5   3.55
##  8     825        297   3.8        4     3      3     3       3     3.06
##  9     825        297   3.8        4     4      4     4       4     4   
## 10     825        297   3.8        4     3      3.5   3       3.5   3.21
## # ℹ 20,349 more rows
```
…
Again, this is not very human readable, and if we reorganize our rows this won't be useful anymore.  The `tidyverse` answer to this approach is the `filter()` function, which lets you filter your dataset into specific rows according to *data stored in the table itself*.


```r
filter(beer_data, abv > 10) # let's get some heavy beers
```

```
## # A tibble: 571 × 14
##    reviews         beer_name beer_id brewery_name brewery_id style   abv user_id
##    <chr>           <chr>       <dbl> <chr>             <dbl> <chr> <dbl> <chr>  
##  1 This is a pers… Thomas H…     578 O'Hanlon Br…       1533 Old …  11.7 putnam…
##  2 While I a not … Thomas H…     578 O'Hanlon Br…       1533 Old …  11.7 proc.1…
##  3 1997. Head is … Thomas H…     578 O'Hanlon Br…       1533 Old …  11.7 nerofi…
##  4 Dark amber/bro… Thomas H…     578 O'Hanlon Br…       1533 Old …  11.7 john.1…
##  5 A brandy compa… Thomas H…     578 O'Hanlon Br…       1533 Old …  11.7 aracau…
##  6 Presentation: … Thomas H…     578 O'Hanlon Br…       1533 Old …  11.7 jason.3
##  7 pours out blac… Thomas H…     578 O'Hanlon Br…       1533 Old …  11.7 budgoo…
##  8 I know, I know… Thomas H…     578 O'Hanlon Br…       1533 Old …  11.7 mophie…
##  9 1988 must have… Harvest …     705 J.W. Lees &…        178 Engl…  11.5 maxpow…
## 10 1997 vintage. … Harvest …     705 J.W. Lees &…        178 Engl…  11.5 suds.3…
## # ℹ 561 more rows
## # ℹ 6 more variables: appearance <dbl>, aroma <dbl>, palate <dbl>, taste <dbl>,
## #   overall <dbl>, rating <dbl>
```

When using `filter()`, we can specify multiple logical conditions.  For example, let's get only Barleywines that are more than 10% ABV.  If we wanted only exact matches, we could use the direct `==` operator:


```r
filter(beer_data, abv > 10, style == "American Barleywine")
```

```
## # A tibble: 99 × 14
##    reviews         beer_name beer_id brewery_name brewery_id style   abv user_id
##    <chr>           <chr>       <dbl> <chr>             <dbl> <chr> <dbl> <chr>  
##  1 For me, this i… Olde Deu…    2066 Alley Kat B…        711 Amer…  11   mab.734
##  2 2000 vintage.T… Beer Line    3048 Lakefront B…        741 Amer…  12.5 bighug…
##  3 A Barleywine m… Beer Line    3048 Lakefront B…        741 Amer…  12.5 zap.184
##  4 Well, Lagunita… Olde Gna…    1579 Lagunitas B…        220 Amer…  10.6 sinist…
##  5 Bottle reads 1… Olde Gna…    1579 Lagunitas B…        220 Amer…  10.6 bighug…
##  6 Presentation: … AleSmith…    6646 AleSmith Br…        396 Amer…  11   jason.3
##  7 This is for th… AleSmith…    6646 AleSmith Br…        396 Amer…  11   aracau…
##  8 It's golden br… AleSmith…    6646 AleSmith Br…        396 Amer…  11   mickey…
##  9 The color is a… John Bar…   20500 Mad River B…        266 Amer…  11.4 beerma…
## 10 Pours a slight… John Bar…   20500 Mad River B…        266 Amer…  11.4 murph.…
## # ℹ 89 more rows
## # ℹ 6 more variables: appearance <dbl>, aroma <dbl>, palate <dbl>, taste <dbl>,
## #   overall <dbl>, rating <dbl>
```

But this won't return, for example, any beer labeled as an "English Barleywine".  


```r
filter(beer_data, abv > 10, style == "American Barleywine" | style == "English Barleywine")
```

```
## # A tibble: 169 × 14
##    reviews         beer_name beer_id brewery_name brewery_id style   abv user_id
##    <chr>           <chr>       <dbl> <chr>             <dbl> <chr> <dbl> <chr>  
##  1 1988 must have… Harvest …     705 J.W. Lees &…        178 Engl…  11.5 maxpow…
##  2 1997 vintage. … Harvest …     705 J.W. Lees &…        178 Engl…  11.5 suds.3…
##  3 2000 vintage. … Harvest …     705 J.W. Lees &…        178 Engl…  11.5 shired…
##  4 [email&#160;pr… Harvest …     705 J.W. Lees &…        178 Engl…  11.5 zap.184
##  5 1997. Hazy che… Harvest …     705 J.W. Lees &…        178 Engl…  11.5 marc77…
##  6 2000 vintage. … Harvest …     705 J.W. Lees &…        178 Engl…  11.5 bighug…
##  7 1999. Pours a … Harvest …     705 J.W. Lees &…        178 Engl…  11.5 murph.…
##  8 Bottle reviews… Harvest …     705 J.W. Lees &…        178 Engl…  11.5 bierma…
##  9 I must say my … Harvest …     705 J.W. Lees &…        178 Engl…  11.5 viking…
## 10 For me, this i… Olde Deu…    2066 Alley Kat B…        711 Amer…  11   mab.734
## # ℹ 159 more rows
## # ℹ 6 more variables: appearance <dbl>, aroma <dbl>, palate <dbl>, taste <dbl>,
## #   overall <dbl>, rating <dbl>
```

In `R`, the `|` means Boolean `OR`, and the `&` means Boolean `AND`.  We can use these to combine conditions for searching our data table.  But this can be a bit tedious.  The `stringr` package, part of `tidyverse`, gives a lot of utility functions that we can use instead of this effortful searching.


```r
filter(beer_data, abv > 10, str_detect(style, "Barleywine"))
```

```
## # A tibble: 169 × 14
##    reviews         beer_name beer_id brewery_name brewery_id style   abv user_id
##    <chr>           <chr>       <dbl> <chr>             <dbl> <chr> <dbl> <chr>  
##  1 1988 must have… Harvest …     705 J.W. Lees &…        178 Engl…  11.5 maxpow…
##  2 1997 vintage. … Harvest …     705 J.W. Lees &…        178 Engl…  11.5 suds.3…
##  3 2000 vintage. … Harvest …     705 J.W. Lees &…        178 Engl…  11.5 shired…
##  4 [email&#160;pr… Harvest …     705 J.W. Lees &…        178 Engl…  11.5 zap.184
##  5 1997. Hazy che… Harvest …     705 J.W. Lees &…        178 Engl…  11.5 marc77…
##  6 2000 vintage. … Harvest …     705 J.W. Lees &…        178 Engl…  11.5 bighug…
##  7 1999. Pours a … Harvest …     705 J.W. Lees &…        178 Engl…  11.5 murph.…
##  8 Bottle reviews… Harvest …     705 J.W. Lees &…        178 Engl…  11.5 bierma…
##  9 I must say my … Harvest …     705 J.W. Lees &…        178 Engl…  11.5 viking…
## 10 For me, this i… Olde Deu…    2066 Alley Kat B…        711 Amer…  11   mab.734
## # ℹ 159 more rows
## # ℹ 6 more variables: appearance <dbl>, aroma <dbl>, palate <dbl>, taste <dbl>,
## #   overall <dbl>, rating <dbl>
```
…
## Combining steps with the pipe: `%>%`

It isn't hard to imagine a situation in which we want to **both** select some columns and filter some rows.  There are 3 ways we can do this, one of which is going to be the best for most situations.

Let's imagine we want to get only information about the beers, abv, and rating for stouts

First, we can nest functions:


```r
select(filter(beer_data, str_detect(style, "Stout")), contains("beer"), abv, rating)
```

```
## # A tibble: 1,666 × 4
##    beer_name                          beer_id   abv rating
##    <chr>                                <dbl> <dbl>  <dbl>
##  1 Kinmount Willie Oatmeal Stout          149   4.2   3.49
##  2 Kinmount Willie Oatmeal Stout          149   4.2   3.92
##  3 Kinmount Willie Oatmeal Stout          149   4.2   3.43
##  4 Kinmount Willie Oatmeal Stout          149   4.2   2.84
##  5 Kinmount Willie Oatmeal Stout          149   4.2   4.13
##  6 Kinmount Willie Oatmeal Stout          149   4.2   3.95
##  7 Dragonhead Stout                      5781   4     4.43
##  8 Le Coq Imperial Extra Double Stout     438  10     4.53
##  9 Le Coq Imperial Extra Double Stout     438  10     4.07
## 10 Le Coq Imperial Extra Double Stout     438  10     2.93
## # ℹ 1,656 more rows
```

The problem with this approach is that we have to read it "inside out".  First, `filter()` will happen and get us only beers that match "Stout" in their `style`.  Then `select()` will get columns that match "beer" in their names, `abv`, and `rating`.  Especially as your code gets complicated, this can be very hard to read.

So we might take the second approach: creating intermediates.  We might first `filter()`, store that step somewhere, then `select()`:


```r
beer_stouts <- filter(beer_data, str_detect(style, "Stout"))
select(beer_stouts, contains("beer"), abv, rating)
```

```
## # A tibble: 1,666 × 4
##    beer_name                          beer_id   abv rating
##    <chr>                                <dbl> <dbl>  <dbl>
##  1 Kinmount Willie Oatmeal Stout          149   4.2   3.49
##  2 Kinmount Willie Oatmeal Stout          149   4.2   3.92
##  3 Kinmount Willie Oatmeal Stout          149   4.2   3.43
##  4 Kinmount Willie Oatmeal Stout          149   4.2   2.84
##  5 Kinmount Willie Oatmeal Stout          149   4.2   4.13
##  6 Kinmount Willie Oatmeal Stout          149   4.2   3.95
##  7 Dragonhead Stout                      5781   4     4.43
##  8 Le Coq Imperial Extra Double Stout     438  10     4.53
##  9 Le Coq Imperial Extra Double Stout     438  10     4.07
## 10 Le Coq Imperial Extra Double Stout     438  10     2.93
## # ℹ 1,656 more rows
```
…
The final method, and what is becoming standard in modern `R` coding, is the **pipe**, which is written in `tidyverse` as `%>%`.  This garbage-looking set of symbols is actually your best friend, you just don't know it yet.  I use this tool constantly in my R programming, but I've been avoiding it up to this point because it's not part of base R (in fact that's no longer strictly true, but it is kind of complicated at the moment).  


OK, enough background, what the heck _is_ a pipe?  The term "pipe" comes from what it does: like a pipe, `%>%` let's whatever is on it's left side flow through to the right hand side.  It is easiest to read `%>%` as "**AND THEN**".  


```r
beer_data %>%                              # Start with the beer_data
  filter(str_detect(style, "Stout")) %>%   # AND THEN filter to stouts
  select(contains("beer"), abv, rating)    # AND THEN select the beer columns, etc
```

```
## # A tibble: 1,666 × 4
##    beer_name                          beer_id   abv rating
##    <chr>                                <dbl> <dbl>  <dbl>
##  1 Kinmount Willie Oatmeal Stout          149   4.2   3.49
##  2 Kinmount Willie Oatmeal Stout          149   4.2   3.92
##  3 Kinmount Willie Oatmeal Stout          149   4.2   3.43
##  4 Kinmount Willie Oatmeal Stout          149   4.2   2.84
##  5 Kinmount Willie Oatmeal Stout          149   4.2   4.13
##  6 Kinmount Willie Oatmeal Stout          149   4.2   3.95
##  7 Dragonhead Stout                      5781   4     4.43
##  8 Le Coq Imperial Extra Double Stout     438  10     4.53
##  9 Le Coq Imperial Extra Double Stout     438  10     4.07
## 10 Le Coq Imperial Extra Double Stout     438  10     2.93
## # ℹ 1,656 more rows
```
…
We can do this easily in base R by setting a new name for a column and using the assign (`<-`) operator, but this is clumsy. Often, we want to create a new column temporarily, or to combine several existing columns.  We can do this using the `mutate()` function.

Let's say that we want to create a quick categorical variable that tells us whether a beer was rated as more than the central value (2.5) in the 5-pt rating scale.  This is kind of like doing a median split, which we'll get to in a moment.

We know that we can use `filter()` to get just the beers with `rating > 2.5`:



```r
beer_data %>%
  filter(rating > 2.5)
```

```
## # A tibble: 18,782 × 14
##    reviews         beer_name beer_id brewery_name brewery_id style   abv user_id
##    <chr>           <chr>       <dbl> <chr>             <dbl> <chr> <dbl> <chr>  
##  1 This is a very… Caffrey'…     825 Thomas Caff…        297 Iris…   3.8 jisurf…
##  2 Great head cre… Caffrey'…     825 Thomas Caff…        297 Iris…   3.8 allbou…
##  3 Wow what a dif… Caffrey'…     825 Thomas Caff…        297 Iris…   3.8 frank4…
##  4 Tried this one… Caffrey'…     825 Thomas Caff…        297 Iris…   3.8 beergl…
##  5 Caffrey's on-t… Caffrey'…     825 Thomas Caff…        297 Iris…   3.8 proc.1…
##  6 The nitro can … Caffrey'…     825 Thomas Caff…        297 Iris…   3.8 zerk.4…
##  7 Nitro can...Ty… Caffrey'…     825 Thomas Caff…        297 Iris…   3.8 adr.263
##  8 Excellent pour… Caffrey'…     825 Thomas Caff…        297 Iris…   3.8 dogbri…
##  9 A very good Ir… Caffrey'…     825 Thomas Caff…        297 Iris…   3.8 goindo…
## 10 Looks very nic… Caffrey'…     825 Thomas Caff…        297 Iris…   3.8 irishr…
## # ℹ 18,772 more rows
## # ℹ 6 more variables: appearance <dbl>, aroma <dbl>, palate <dbl>, taste <dbl>,
## #   overall <dbl>, rating <dbl>
```

But what if we want to be able to just see this?


```r
beer_data %>%
  mutate(better_than_2.5 = rating > 2.5) %>%
  # We'll select just a few columns to help us see the result
  select(beer_name, rating, better_than_2.5) 
```

```
## # A tibble: 20,359 × 3
##    beer_name           rating better_than_2.5
##    <chr>                <dbl> <lgl>          
##  1 Caffrey's Irish Ale   4.46 TRUE           
##  2 Caffrey's Irish Ale   3.74 TRUE           
##  3 Caffrey's Irish Ale   3.26 TRUE           
##  4 Caffrey's Irish Ale   3.5  TRUE           
##  5 Caffrey's Irish Ale   3.86 TRUE           
##  6 Caffrey's Irish Ale   3.11 TRUE           
##  7 Caffrey's Irish Ale   3.55 TRUE           
##  8 Caffrey's Irish Ale   3.06 TRUE           
##  9 Caffrey's Irish Ale   4    TRUE           
## 10 Caffrey's Irish Ale   3.21 TRUE           
## # ℹ 20,349 more rows
```
…
```
## [1] 3.719406
```

```r
# Now, let's create a column that tells us if a beer is rated > average
beer_data %>%
  mutate(better_than_average = rating > mean(rating)) %>%
  # Again, let's select just a few columns
  select(beer_name, rating, better_than_average)
```

```
## # A tibble: 20,359 × 3
##    beer_name           rating better_than_average
##    <chr>                <dbl> <lgl>              
##  1 Caffrey's Irish Ale   4.46 TRUE               
##  2 Caffrey's Irish Ale   3.74 TRUE               
##  3 Caffrey's Irish Ale   3.26 FALSE              
##  4 Caffrey's Irish Ale   3.5  FALSE              
##  5 Caffrey's Irish Ale   3.86 TRUE               
##  6 Caffrey's Irish Ale   3.11 FALSE              
##  7 Caffrey's Irish Ale   3.55 FALSE              
##  8 Caffrey's Irish Ale   3.06 FALSE              
##  9 Caffrey's Irish Ale   4    TRUE               
## 10 Caffrey's Irish Ale   3.21 FALSE              
## # ℹ 20,349 more rows
```
…
