…
What if we want to count the total number of times each `cata_` attribute was used for one of the berries?

Well, we *can* do this with `summarize()`, but we'd have to type out the names of all 36 columns manually. This is what `select()` helpers are for, and we *can* use them in functions that operate on rows or groups like `filter()`, `mutate()`, and `summarize()` if we use the new `across()` function.


```r
berry_data %>%
  group_by(`Sample Name`) %>%
  summarize(across(.cols = starts_with("cata_"),
                   .fns = sum))
```

```
## # A tibble: 23 × 37
##    `Sample Name` cata_appearance_unevencolor cata_appearance_misshapen
##    <chr>                               <dbl>                     <dbl>
##  1 Blackberry 1                           28                        67
##  2 Blackberry 2                           32                        72
##  3 Blackberry 3                           25                        50
##  4 Blackberry 4                           46                       114
##  5 Blackberry 5                           32                       144
##  6 Blueberry 1                            46                        13
##  7 Blueberry 2                            48                        25
##  8 Blueberry 3                            34                        37
##  9 Blueberry 4                            29                        26
## 10 Blueberry 5                            22                        35
## # ℹ 13 more rows
## # ℹ 34 more variables: cata_appearance_creased <dbl>,
## #   cata_appearance_seedy <dbl>, cata_appearance_bruised <dbl>,
## #   cata_appearance_notfresh <dbl>, cata_appearance_fresh <dbl>,
## #   cata_appearance_goodshape <dbl>, cata_appearance_goodquality <dbl>,
## #   cata_appearance_none <dbl>, cata_taste_floral <dbl>,
## #   cata_taste_berry <dbl>, cata_taste_green <dbl>, cata_taste_grassy <dbl>, …
```
…
We can easily expand this to take multiple kinds of summaries for each column, in which case it helps to **name** the functions. `across()` uses **lists** to work with more than one function, so it will look at the **list names** (lefthand-side of the arguments in `list()`) to name the output columns:


```r
berry_data %>%
  group_by(`Sample Name`) %>%
  summarize(across(.cols = starts_with("cata_"),
                   .fns = list(frequency = sum,
                               #the sum of binary cata data gives the citation frequency
                               percentage = mean)))
```

```
## # A tibble: 23 × 73
##    `Sample Name` cata_appearance_unevencolor_frequency cata_appearance_unevenc…¹
##    <chr>                                         <dbl>                     <dbl>
##  1 Blackberry 1                                     28                    0.0936
##  2 Blackberry 2                                     32                    0.107 
##  3 Blackberry 3                                     25                    0.0836
##  4 Blackberry 4                                     46                    0.154 
##  5 Blackberry 5                                     32                    0.107 
##  6 Blueberry 1                                      46                    0.147 
##  7 Blueberry 2                                      48                    0.153 
##  8 Blueberry 3                                      34                    0.109 
##  9 Blueberry 4                                      29                    0.0927
## 10 Blueberry 5                                      22                    0.0703
## # ℹ 13 more rows
## # ℹ abbreviated name: ¹​cata_appearance_unevencolor_percentage
## # ℹ 70 more variables: cata_appearance_misshapen_frequency <dbl>,
## #   cata_appearance_misshapen_percentage <dbl>,
## #   cata_appearance_creased_frequency <dbl>,
## #   cata_appearance_creased_percentage <dbl>,
## #   cata_appearance_seedy_frequency <dbl>, …
```
…
Remember, the tilde is usually above the backtick on QWERTY keyboards. Try the instructions [here](https://apple.stackexchange.com/questions/286197/typing-the-tilde-character-on-a-pc-keyboard) and [here](https://www.liquisearch.com/tilde/keyboards) to type a tilde if you have a non-QWERTY keyboard. If those methods don't work, try [this guide for Italian keyboards](https://superuser.com/questions/667622/italian-keyboard-entering-tilde-and-backtick-characters-without-changin), [this guide for Spanish keyboards](https://apple.stackexchange.com/q/219603/5472), [this guide for German](https://apple.stackexchange.com/q/395677/5472), [this guide for Norwegian](https://apple.stackexchange.com/q/141066/5472), or [this guide for Swedish](https://apple.stackexchange.com/q/329085/5472) keyboards.

This will be necessary if we want to take the average of our various liking columns without those pesky `NA`s propogating.


```r
berry_data %>%
  group_by(`Sample Name`) %>%
  summarize(across(.cols = starts_with("9pt_"),
                   .fns = list(mean = mean,
                               sd = sd))) #All NA
```

```
## # A tibble: 23 × 11
##    `Sample Name` `9pt_appearance_mean` `9pt_appearance_sd` `9pt_overall_mean`
##    <chr>                         <dbl>               <dbl>              <dbl>
##  1 Blackberry 1                     NA                  NA                 NA
##  2 Blackberry 2                     NA                  NA                 NA
##  3 Blackberry 3                     NA                  NA                 NA
##  4 Blackberry 4                     NA                  NA                 NA
##  5 Blackberry 5                     NA                  NA                 NA
##  6 Blueberry 1                      NA                  NA                 NA
##  7 Blueberry 2                      NA                  NA                 NA
##  8 Blueberry 3                      NA                  NA                 NA
##  9 Blueberry 4                      NA                  NA                 NA
## 10 Blueberry 5                      NA                  NA                 NA
## # ℹ 13 more rows
## # ℹ 7 more variables: `9pt_overall_sd` <dbl>, `9pt_taste_mean` <dbl>,
## #   `9pt_taste_sd` <dbl>, `9pt_texture_mean` <dbl>, `9pt_texture_sd` <dbl>,
## #   `9pt_aroma_mean` <dbl>, `9pt_aroma_sd` <dbl>
```

```r
berry_data %>%
  group_by(`Sample Name`) %>%
  summarize(across(.cols = starts_with("9pt_"),
                   .fns = list(mean = ~ mean(.x, na.rm = TRUE),
                               sd = ~ sd(.x, na.rm = TRUE))))
```

```
## # A tibble: 23 × 11
##    `Sample Name` `9pt_appearance_mean` `9pt_appearance_sd` `9pt_overall_mean`
##    <chr>                         <dbl>               <dbl>              <dbl>
##  1 Blackberry 1                   6.57                1.64               5.12
##  2 Blackberry 2                   6.43                1.61               4.66
##  3 Blackberry 3                   6.96                1.37               5.65
##  4 Blackberry 4                   5.90                1.97               5.82
##  5 Blackberry 5                   5.99                1.82               5.94
##  6 Blueberry 1                    6.75                1.55               5.75
##  7 Blueberry 2                    6.61                1.53               5.85
##  8 Blueberry 3                    6.4                 1.68               5.61
##  9 Blueberry 4                    6.45                1.72               5.70
## 10 Blueberry 5                    6.39                1.74               5.38
## # ℹ 13 more rows
## # ℹ 7 more variables: `9pt_overall_sd` <dbl>, `9pt_taste_mean` <dbl>,
## #   `9pt_taste_sd` <dbl>, `9pt_texture_mean` <dbl>, `9pt_texture_sd` <dbl>,
## #   `9pt_aroma_mean` <dbl>, `9pt_aroma_sd` <dbl>
```
…
```r
berry_data %>%
  select(`Subject Code`, `Sample Name`, berry, starts_with("cata_"), starts_with("9pt")) %>% # for clarity
  pivot_longer(cols = starts_with("cata_"),
               names_prefix = "cata_",
               names_to = "attribute",
               values_to = "presence") -> berry_data_cata_long
#The names_prefix will be *removed* from the start of every column name
#before putting the rest of the name in the `names_to` column

berry_data_cata_long
```

```
## # A tibble: 270,252 × 10
##    `Subject Code` `Sample Name` berry `9pt_appearance` `9pt_overall` `9pt_taste`
##             <dbl> <chr>         <chr>            <dbl>         <dbl>       <dbl>
##  1           1001 raspberry 6   rasp…                4             4           4
##  2           1001 raspberry 6   rasp…                4             4           4
##  3           1001 raspberry 6   rasp…                4             4           4
##  4           1001 raspberry 6   rasp…                4             4           4
##  5           1001 raspberry 6   rasp…                4             4           4
##  6           1001 raspberry 6   rasp…                4             4           4
##  7           1001 raspberry 6   rasp…                4             4           4
##  8           1001 raspberry 6   rasp…                4             4           4
##  9           1001 raspberry 6   rasp…                4             4           4
## 10           1001 raspberry 6   rasp…                4             4           4
## # ℹ 270,242 more rows
## # ℹ 4 more variables: `9pt_texture` <dbl>, `9pt_aroma` <dbl>, attribute <chr>,
## #   presence <dbl>
```
…
Now for each unique combination of `Sample Name` and `Subject Code`, we have 36 rows, one for each CATA question that was asked. The variables that weren't listed in the `cols` argument are just replicated on each of these rows. Each of the 36 rows that represent `Subject Code` 1001's CATA responses for `raspberry 6` has the same `Subject Code`, `Sample Name`, `berry`, and various `9pt_` ratings as the other 35.

Sometimes we want to have "wider" or "untidy" data.  We can use `pivot_wider()` to reverse the effects of `pivot_longer()`.


```r
berry_data_cata_long %>%
  pivot_wider(names_from = "attribute",
              values_from = "presence",
              names_prefix = "cata_") #pivot_wider *adds* the names_prefix
```

```
## # A tibble: 7,507 × 44
##    `Subject Code` `Sample Name` berry `9pt_appearance` `9pt_overall` `9pt_taste`
##             <dbl> <chr>         <chr>            <dbl>         <dbl>       <dbl>
##  1           1001 raspberry 6   rasp…                4             4           4
##  2           1001 raspberry 5   rasp…                8             9           9
##  3           1001 raspberry 2   rasp…                4             3           3
##  4           1001 raspberry 3   rasp…                7             7           6
##  5           1001 raspberry 4   rasp…                7             4           3
##  6           1001 raspberry 1   rasp…                7             4           3
##  7           1002 raspberry 6   rasp…                6             4           4
##  8           1002 raspberry 5   rasp…                8             7           4
##  9           1002 raspberry 2   rasp…                8             7           6
## 10           1002 raspberry 3   rasp…                7             9           9
## # ℹ 7,497 more rows
## # ℹ 38 more variables: `9pt_texture` <dbl>, `9pt_aroma` <dbl>,
## #   cata_appearance_unevencolor <dbl>, cata_appearance_misshapen <dbl>,
## #   cata_appearance_creased <dbl>, cata_appearance_seedy <dbl>,
## #   cata_appearance_bruised <dbl>, cata_appearance_notfresh <dbl>,
## #   cata_appearance_fresh <dbl>, cata_appearance_goodshape <dbl>,
## #   cata_appearance_goodquality <dbl>, cata_appearance_none <dbl>, …
```
…
```r
berry_data %>%
  rename(Sample = `Sample Name`,
         Subject = `Participant Name`) %>%
  select(Subject, Sample, everything()) #no more backticks!
```

```
## # A tibble: 7,507 × 92
##    Subject Sample      `Subject Code` Gender Age   `Start Time (UTC)`
##      <dbl> <chr>                <dbl> <lgl>  <lgl> <chr>             
##  1    1001 raspberry 6           1001 NA     NA    6/13/2019 21:05   
##  2    1001 raspberry 5           1001 NA     NA    6/13/2019 20:55   
##  3    1001 raspberry 2           1001 NA     NA    6/13/2019 20:49   
##  4    1001 raspberry 3           1001 NA     NA    6/13/2019 20:45   
##  5    1001 raspberry 4           1001 NA     NA    6/13/2019 21:00   
##  6    1001 raspberry 1           1001 NA     NA    6/13/2019 21:10   
##  7    1002 raspberry 6           1002 NA     NA    6/13/2019 20:08   
##  8    1002 raspberry 5           1002 NA     NA    6/13/2019 19:57   
##  9    1002 raspberry 2           1002 NA     NA    6/13/2019 20:13   
## 10    1002 raspberry 3           1002 NA     NA    6/13/2019 20:03   
## # ℹ 7,497 more rows
## # ℹ 86 more variables: `End Time (UTC)` <chr>, `Serving Position` <dbl>,
## #   `Sample Identifier` <dbl>, `9pt_appearance` <dbl>, pre_expectation <dbl>,
## #   jar_color <dbl>, jar_gloss <dbl>, jar_size <dbl>,
## #   cata_appearance_unevencolor <dbl>, cata_appearance_misshapen <dbl>,
## #   cata_appearance_creased <dbl>, cata_appearance_seedy <dbl>,
## #   cata_appearance_bruised <dbl>, cata_appearance_notfresh <dbl>, …
```

You can also rename by position, but be sure you have the right order and don't change the input data later:


```r
berry_data %>%
  rename(Subject = 1)
```

```
## # A tibble: 7,507 × 92
##    Subject `Participant Name` Gender Age   `Start Time (UTC)` `End Time (UTC)`
##      <dbl>              <dbl> <lgl>  <lgl> <chr>              <chr>           
##  1    1001               1001 NA     NA    6/13/2019 21:05    6/13/2019 21:09 
##  2    1001               1001 NA     NA    6/13/2019 20:55    6/13/2019 20:59 
##  3    1001               1001 NA     NA    6/13/2019 20:49    6/13/2019 20:53 
##  4    1001               1001 NA     NA    6/13/2019 20:45    6/13/2019 20:48 
##  5    1001               1001 NA     NA    6/13/2019 21:00    6/13/2019 21:03 
##  6    1001               1001 NA     NA    6/13/2019 21:10    6/13/2019 21:13 
##  7    1002               1002 NA     NA    6/13/2019 20:08    6/13/2019 20:11 
##  8    1002               1002 NA     NA    6/13/2019 19:57    6/13/2019 20:01 
##  9    1002               1002 NA     NA    6/13/2019 20:13    6/13/2019 20:17 
## 10    1002               1002 NA     NA    6/13/2019 20:03    6/13/2019 20:07 
## # ℹ 7,497 more rows
## # ℹ 86 more variables: `Serving Position` <dbl>, `Sample Identifier` <dbl>,
## #   `Sample Name` <chr>, `9pt_appearance` <dbl>, pre_expectation <dbl>,
## #   jar_color <dbl>, jar_gloss <dbl>, jar_size <dbl>,
## #   cata_appearance_unevencolor <dbl>, cata_appearance_misshapen <dbl>,
## #   cata_appearance_creased <dbl>, cata_appearance_seedy <dbl>,
## #   cata_appearance_bruised <dbl>, cata_appearance_notfresh <dbl>, …
```

### Relocate your columns

If you `mutate()` columns or just have a big data set with a lot of variables, often you want to move columns around.  This is a pain to do with `[]`, but again `tidyverse` has a utility to move things around easily: `relocate()`.


```r
berry_data %>%
  relocate(`Sample Name`) # giving no other arguments will move to front
```

```
## # A tibble: 7,507 × 92
##    `Sample Name` `Subject Code` `Participant Name` Gender Age  
##    <chr>                  <dbl>              <dbl> <lgl>  <lgl>
##  1 raspberry 6             1001               1001 NA     NA   
##  2 raspberry 5             1001               1001 NA     NA   
##  3 raspberry 2             1001               1001 NA     NA   
##  4 raspberry 3             1001               1001 NA     NA   
##  5 raspberry 4             1001               1001 NA     NA   
##  6 raspberry 1             1001               1001 NA     NA   
##  7 raspberry 6             1002               1002 NA     NA   
##  8 raspberry 5             1002               1002 NA     NA   
##  9 raspberry 2             1002               1002 NA     NA   
## 10 raspberry 3             1002               1002 NA     NA   
## # ℹ 7,497 more rows
## # ℹ 87 more variables: `Start Time (UTC)` <chr>, `End Time (UTC)` <chr>,
## #   `Serving Position` <dbl>, `Sample Identifier` <dbl>,
## #   `9pt_appearance` <dbl>, pre_expectation <dbl>, jar_color <dbl>,
## #   jar_gloss <dbl>, jar_size <dbl>, cata_appearance_unevencolor <dbl>,
## #   cata_appearance_misshapen <dbl>, cata_appearance_creased <dbl>,
## #   cata_appearance_seedy <dbl>, cata_appearance_bruised <dbl>, …
```

You can also use `relocate()` to specify positions


```r
berry_data %>%
  relocate(Gender, Age, `Subject Code`, `Start Time (UTC)`, `End Time (UTC)`, `Sample Identifier`, .after = berry) # move repetitive and empty columns to the end
```

```
## # A tibble: 7,507 × 92
##    `Participant Name` `Serving Position` `Sample Name` `9pt_appearance`
##                 <dbl>              <dbl> <chr>                    <dbl>
##  1               1001                  5 raspberry 6                  4
##  2               1001                  3 raspberry 5                  8
##  3               1001                  2 raspberry 2                  4
##  4               1001                  1 raspberry 3                  7
##  5               1001                  4 raspberry 4                  7
##  6               1001                  6 raspberry 1                  7
##  7               1002                  3 raspberry 6                  6
##  8               1002                  1 raspberry 5                  8
##  9               1002                  4 raspberry 2                  8
## 10               1002                  2 raspberry 3                  7
## # ℹ 7,497 more rows
## # ℹ 88 more variables: pre_expectation <dbl>, jar_color <dbl>, jar_gloss <dbl>,
## #   jar_size <dbl>, cata_appearance_unevencolor <dbl>,
## #   cata_appearance_misshapen <dbl>, cata_appearance_creased <dbl>,
## #   cata_appearance_seedy <dbl>, cata_appearance_bruised <dbl>,
## #   cata_appearance_notfresh <dbl>, cata_appearance_fresh <dbl>,
## #   cata_appearance_goodshape <dbl>, cata_appearance_goodquality <dbl>, …
```
…
```r
berry_data %>%
  select(`Participant Name`, `Sample Name`, contains("9pt_")) %>%
  drop_na() #Now we get only respondants who answered all 9-point liking questions.
```

```
## # A tibble: 600 × 7
##    `Participant Name` `Sample Name` `9pt_appearance` `9pt_overall` `9pt_taste`
##                 <dbl> <chr>                    <dbl>         <dbl>       <dbl>
##  1               2001 Strawberry4                  5             5           4
##  2               2001 Strawberry1                  6             2           2
##  3               2001 Strawberry2                  1             6           6
##  4               2001 Strawberry6                  3             3           2
##  5               2001 Strawberry3                  8             7           8
##  6               2001 Strawberry5                  4             6           6
##  7               2002 Strawberry4                  2             4           3
##  8               2002 Strawberry1                  4             6           7
##  9               2002 Strawberry2                  3             6           6
## 10               2002 Strawberry6                  7             7           8
## # ℹ 590 more rows
## # ℹ 2 more variables: `9pt_texture` <dbl>, `9pt_aroma` <dbl>
```
…
