…
Now let's take a look at the **tidy** CATA data we need to convert into a frequency table:


```r
berry_data %>%
  select(`Sample Name`, `Subject Code`, starts_with("cata_"))
```

```
## # A tibble: 7,507 × 38
##    `Sample Name` `Subject Code` cata_appearance_unevenc…¹ cata_appearance_miss…²
##    <chr>                  <dbl>                     <dbl>                  <dbl>
##  1 raspberry 6             1001                         0                      1
##  2 raspberry 5             1001                         0                      0
##  3 raspberry 2             1001                         0                      0
##  4 raspberry 3             1001                         0                      0
##  5 raspberry 4             1001                         1                      1
##  6 raspberry 1             1001                         0                      0
##  7 raspberry 6             1002                         0                      0
##  8 raspberry 5             1002                         1                      0
##  9 raspberry 2             1002                         1                      0
## 10 raspberry 3             1002                         1                      0
## # ℹ 7,497 more rows
## # ℹ abbreviated names: ¹​cata_appearance_unevencolor, ²​cata_appearance_misshapen
## # ℹ 34 more variables: cata_appearance_creased <dbl>,
## #   cata_appearance_seedy <dbl>, cata_appearance_bruised <dbl>,
## #   cata_appearance_notfresh <dbl>, cata_appearance_fresh <dbl>,
## #   cata_appearance_goodshape <dbl>, cata_appearance_goodquality <dbl>,
## #   cata_appearance_none <dbl>, cata_taste_floral <dbl>, …
```
…
The first type of `character` data (with a limited number of mutually exclusive categories), thankfully, is much easier to deal with. We could turn the `berry` type variable into four separate **indicator variables** with 0s and 1s, if the analysis called for it, using `pivot_wider()`. Because we're turning *one column* into *multiple columns*, we're making the data wider, even though we don't actually want to make it any shorter.


```r
berry_data %>%
  mutate(presence = 1) %>%
  pivot_wider(names_from = berry,
              values_from = presence, values_fill = 0) %>%
  #The rest is just for visibility:
  select(ends_with("berry"), `Sample Name`, everything()) %>%
  arrange(lms_overall)
```

```
## # A tibble: 7,507 × 95
##    cata_taste_berry raspberry blackberry blueberry strawberry `Sample Name`
##               <dbl>     <dbl>      <dbl>     <dbl>      <dbl> <chr>        
##  1                0         1          0         0          0 raspberry 2  
##  2                0         0          0         0          1 Strawberry2  
##  3                0         1          0         0          0 raspberry 2  
##  4                0         1          0         0          0 raspberry 1  
##  5                0         1          0         0          0 raspberry 5  
##  6                0         0          1         0          0 Blackberry 1 
##  7                0         0          1         0          0 Blackberry 2 
##  8                0         0          0         1          0 Blueberry 2  
##  9                0         0          0         1          0 Blueberry 4  
## 10                0         0          0         0          1 Strawberry1  
## # ℹ 7,497 more rows
## # ℹ 89 more variables: `Subject Code` <dbl>, `Participant Name` <dbl>,
## #   Gender <lgl>, Age <lgl>, `Start Time (UTC)` <chr>, `End Time (UTC)` <chr>,
## #   `Serving Position` <dbl>, `Sample Identifier` <dbl>,
## #   `9pt_appearance` <dbl>, pre_expectation <dbl>, jar_color <dbl>,
## #   jar_gloss <dbl>, jar_size <dbl>, cata_appearance_unevencolor <dbl>,
## #   cata_appearance_misshapen <dbl>, cata_appearance_creased <dbl>, …
```

And we can see here that `pivot_wider()` increased the number of columns without decreasing the number of rows. By default, it will only combine rows where every column other than the `names_from` and `values_from` columns are identical.

It's often possible to convert between data types by changing the scope of your focus. **Summary tables** of categorical data can include numerical statistics (and this might give you a clue as to which `tidyverse` verb we're going to be using the most in this chapter). The most common kind of summary statistic for categorical variables is the **count** or **frequency**, which is where frequency tables get their name.


```r
berry_data %>%
  group_by(`Sample Name`) %>%
  summarize(across(starts_with("cata_"), sum))
```

```
## # A tibble: 23 × 37
##    `Sample Name` cata_appearance_unevencolor cata_appearance_misshapen
##    <chr>                               <dbl>                     <dbl>
##  1 Blackberry 1                           28                        67
##  2 Blackberry 2                           32                        72
##  3 Blackberry 3                           25                        50
##  4 Blackberry 4                           46                       114
##  5 Blackberry 5                           32                       144
##  6 Blueberry 1                            46                        13
##  7 Blueberry 2                            48                        25
##  8 Blueberry 3                            34                        37
##  9 Blueberry 4                            29                        26
## 10 Blueberry 5                            22                        35
## # ℹ 13 more rows
## # ℹ 34 more variables: cata_appearance_creased <dbl>,
## #   cata_appearance_seedy <dbl>, cata_appearance_bruised <dbl>,
## #   cata_appearance_notfresh <dbl>, cata_appearance_fresh <dbl>,
## #   cata_appearance_goodshape <dbl>, cata_appearance_goodquality <dbl>,
## #   cata_appearance_none <dbl>, cata_taste_floral <dbl>,
## #   cata_taste_berry <dbl>, cata_taste_green <dbl>, cata_taste_grassy <dbl>, …
```
…
For now, we'll just drop those terms.


```r
berry_data %>%
  group_by(`Sample Name`) %>%
  summarize(across(starts_with("cata_"), sum)) %>%
  select(where(~ none(.x, is.na))) -> berry_tidy_contingency

berry_tidy_contingency
```

```
## # A tibble: 23 × 14
##    `Sample Name` cata_appearance_unevencolor cata_appearance_misshapen
##    <chr>                               <dbl>                     <dbl>
##  1 Blackberry 1                           28                        67
##  2 Blackberry 2                           32                        72
##  3 Blackberry 3                           25                        50
##  4 Blackberry 4                           46                       114
##  5 Blackberry 5                           32                       144
##  6 Blueberry 1                            46                        13
##  7 Blueberry 2                            48                        25
##  8 Blueberry 3                            34                        37
##  9 Blueberry 4                            29                        26
## 10 Blueberry 5                            22                        35
## # ℹ 13 more rows
## # ℹ 11 more variables: cata_appearance_notfresh <dbl>,
## #   cata_appearance_fresh <dbl>, cata_appearance_goodquality <dbl>,
## #   cata_appearance_none <dbl>, cata_taste_floral <dbl>,
## #   cata_taste_berry <dbl>, cata_taste_grassy <dbl>,
## #   cata_taste_fermented <dbl>, cata_taste_fruity <dbl>,
## #   cata_taste_earthy <dbl>, cata_taste_none <dbl>
```
…
We could also add on any columns that have one value for each product *and* each attribute (or fill in the gaps with `NA`s). Maybe we want a column with the `rowmass`es and `colmass`es. These are vectors, so it would be handy if we could wrangle them into tibbles first.

You can use either `tibble()` or `data.frame()` to make vectors in the same order into a table. They have basically the same usage. Just make sure you name your columns!


```r
berry_rowmass <- tibble(Variable = berry_ca_res$rownames,
                        Mass = berry_ca_res$rowmass)

berry_rowmass
```

```
## # A tibble: 23 × 2
##    Variable       Mass
##    <chr>         <dbl>
##  1 Blackberry 1 0.0392
##  2 Blackberry 2 0.0394
##  3 Blackberry 3 0.0412
##  4 Blackberry 4 0.0401
##  5 Blackberry 5 0.0429
##  6 Blueberry 1  0.0394
##  7 Blueberry 2  0.0378
##  8 Blueberry 3  0.0399
##  9 Blueberry 4  0.0386
## 10 Blueberry 5  0.0392
## # ℹ 13 more rows
```
…
And now we can use `bind_rows()` and `left_join()` to jigsaw these together.


```r
bind_rows(berry_colmass, berry_rowmass) %>%
  left_join(berry_ca_coords, by = "Variable")
```

```
## # A tibble: 36 × 15
##    Variable    Mass Type     Dim1    Dim2   Dim3   Dim4    Dim5    Dim6     Dim7
##    <chr>      <dbl> <chr>   <dbl>   <dbl>  <dbl>  <dbl>   <dbl>   <dbl>    <dbl>
##  1 cata_ap… 0.0848  Attr…  1.94   -1.17    0.321 -0.369 -1.62   -0.377    0.302 
##  2 cata_ap… 0.0473  Attr…  0.0589  2.05   -3.66   0.353 -1.01   -0.212   -0.239 
##  3 cata_ap… 0.0551  Attr…  2.45    0.162  -0.225  0.995  2.87    1.03    -0.0555
##  4 cata_ap… 0.162   Attr… -0.937   0.0247  0.440  0.124 -0.109   0.141    0.0440
##  5 cata_ap… 0.145   Attr… -0.997   0.0809  0.506  0.485  0.530   0.333    0.343 
##  6 cata_ap… 0.00271 Attr… -0.794  -1.48   -0.166 -1.42   0.690   3.29   -17.0   
##  7 cata_ta… 0.0457  Attr… -0.282  -0.156  -0.661 -0.224  1.50   -2.82     0.864 
##  8 cata_ta… 0.162   Attr… -0.333  -0.790  -0.460 -0.435  0.0346  0.0894  -0.214 
##  9 cata_ta… 0.0614  Attr…  0.598   1.20    1.49   1.30  -0.968  -1.02    -0.489 
## 10 cata_ta… 0.0339  Attr…  0.485   2.24    0.825 -3.96   0.106   1.89     1.04  
## # ℹ 26 more rows
## # ℹ 5 more variables: Dim8 <dbl>, Dim9 <dbl>, Dim10 <dbl>, Dim11 <dbl>,
## #   Dim12 <dbl>
```
…
