…
This sentence tells us the other important thing about `ggplot()` and the `aes()` mappings: **mapped variables each have to be in their own column**.  This is another reason that `ggplot()` requires tidy data.

### Adding layers with `geom_*()` functions

In the above example, we added (literally, using `+`) a function called `geom_point()` to the base `ggplot()` call.  This is functionally a "layer" of our plot, that tells `ggplot2` how to actually visualize the elements specified in the `aes()` function--in the case of `geom_point()`, we create a point for each row's combination of `x = lms_overall` and `y = 9pt_overall`.


```r
berry_average_likings %>%
  select(lms_overall, `9pt_overall`)
```

```
## # A tibble: 23 × 2
##    lms_overall `9pt_overall`
##          <dbl>         <dbl>
##  1       32.6           6.30
##  2       26.1           5.96
##  3       22.0           5.86
##  4       34.3           6.17
##  5       15.0           5.82
##  6       16.1           4.97
##  7       21.6           5.82
##  8        5.60          4.66
##  9        6.92          5.12
## 10       20.4           5.65
## # ℹ 13 more rows
```
…
1.  Kieran Healy's "[Data Visualization: a Practical Introduction](https://socviz.co/index.html#preface)".
2.  The plotting section of [R for Data Science](https://r4ds.had.co.nz/data-visualisation.html).
3.  Hadley Wickham's core reference textbook on [ggplot2](https://ggplot2-book.org/).

## Better CA plots with ggplot2

We need to think about what we want to plot. The CA maps are **scatterplots** where each point is a **sample** (row variable) or **attribute** (column variable). These coordinates are in the list that the `ca()` function outputs, but in two separate matrices. We already learned how to combine them into *one* where the columns are *axes* and the rows are the *variables* from our initial dataset, with a column specifying whether each row is a sample or an attribute variable.


```r
berry_ca_coords
```

```
## # A tibble: 36 × 14
##    Type  Variable     Dim1    Dim2    Dim3   Dim4    Dim5   Dim6     Dim7   Dim8
##    <chr> <chr>       <dbl>   <dbl>   <dbl>  <dbl>   <dbl>  <dbl>    <dbl>  <dbl>
##  1 Berry Blackberr… -0.676  1.56    0.0289 -2.12   0.421   0.416 -0.0872   0.555
##  2 Berry Blackberr… -0.461  2.16    0.445  -0.676 -0.401   1.35  -0.144    0.318
##  3 Berry Blackberr… -1.03   1.03    0.589  -1.55   0.149  -0.154 -0.00916  0.173
##  4 Berry Blackberr… -0.476  0.738  -2.14    1.80  -1.05    0.604  1.12     1.62 
##  5 Berry Blackberr… -0.738  1.55   -2.29   -0.377 -1.48   -0.653 -0.503   -0.956
##  6 Berry Blueberry… -0.942 -0.167   1.35    0.972  0.342  -0.709  0.276    0.509
##  7 Berry Blueberry… -0.891 -0.735   0.469   1.36  -0.0587  3.08   0.538   -1.17 
##  8 Berry Blueberry… -0.693  0.308   0.498   0.267  1.45   -1.53   0.767   -0.176
##  9 Berry Blueberry… -1.06  -0.198   0.540  -0.601  1.45   -0.122  0.607   -0.266
## 10 Berry Blueberry… -0.904  0.0126  0.296   1.32   1.25    0.821  0.475    1.31 
## # ℹ 26 more rows
## # ℹ 4 more variables: Dim9 <dbl>, Dim10 <dbl>, Dim11 <dbl>, Dim12 <dbl>
```
…
