5 Fine-Tuning Publication-Quality ggplots | Publication-quality data visualizations using the R tidyverse
…
berry_penalty_analysis_data %>%
  select(-count) %>%
  pivot_wider(names_from = checked,
              values_from = penalty_lift,
              names_prefix = "checked_") %>%
  separate(cata_variable, 
           into = c("mode", "variable"), 
           sep = "_") %>%
  mutate(penalty_lift = checked_1 - checked_0,
         mode = case_when(mode == "taste" ~ "(T)",
                          mode == "appearance" ~ "(A)",
                          mode == "appearane" ~ "(A)")) %>%
  unite(variable, mode, col = "cata_variable", sep = " ")

## # A tibble: 85 × 5
##    berry      cata_variable   checked_0 checked_1 penalty_lift
##    <chr>      <chr>               <dbl>     <dbl>        <dbl>
##  1 blackberry fresh (A)            4.70      5.80        1.10 
##  2 blackberry goodcolor (A)        4.63      5.77        1.14 
##  3 blackberry goodquality (A)      4.69      5.96        1.26 
##  4 blackberry goodshapre (A)       4.93      5.86        0.923
##  5 blackberry misshapen (A)        5.63      4.92       -0.708
##  6 blackberry none (A)             5.42      4.78       -0.641
##  7 blackberry notfresh (A)         5.57      3.76       -1.81 
##  8 blackberry unevencolor (A)      5.53      4.53       -0.998
##  9 blackberry bruised (A)          5.53      4.67       -0.861
## 10 blackberry berry (T)            4.21      6.49        2.27 
## # ℹ 75 more rows

5.2.1 Powerful Text Manipulation with stringr

The stringr package is a part of the tidyverse, so you have it already loaded whenever you run library(tidyverse). It has a lot of useful functions for working with text (called “strings” in many programming languages), mostly of the form str_*(). One thing you can do is change labels to uppercase, lowercase, or “title case” (first letter of each word capitalized), as appropriate:

berry_penalty_analysis_data %>%
  select(berry) %>%
  mutate(Upper = str_to_upper(berry),
         Title = str_to_title(berry)) # Capitalizes the first letter of each word

## # A tibble: 170 × 3
##    berry      Upper      Title     
##    <chr>      <chr>      <chr>     
##  1 blackberry BLACKBERRY Blackberry
##  2 blackberry BLACKBERRY Blackberry
##  3 blackberry BLACKBERRY Blackberry
##  4 blackberry BLACKBERRY Blackberry
##  5 blackberry BLACKBERRY Blackberry
##  6 blackberry BLACKBERRY Blackberry
##  7 blackberry BLACKBERRY Blackberry
##  8 blackberry BLACKBERRY Blackberry
##  9 blackberry BLACKBERRY Blackberry
## 10 blackberry BLACKBERRY Blackberry
## # ℹ 160 more rows

It also has its own version of unite() called str_c(), although it works on vectors (e.g., inside mutate()) rather than on whole tables like a dplyr verb.

On the other hand, if you don’t need to do the intermediate step of changing the separate()d parts, str_replace() and str_replace_all() are very useful for dealing with underscores or periods. You give it string, the text vector you want to modify (inside mutate(), a column name); then pattern, the character(s) you want to replace; then replacement, what you want to replace them with.

berry_penalty_analysis_data %>%
  select(-count) %>%
  pivot_wider(names_from = checked,
              values_from = penalty_lift,
              names_prefix = "checked_") %>%
  mutate(cata_variable = str_replace_all(cata_variable, "_", ": "))

## # A tibble: 85 × 4
##    berry      cata_variable           checked_0 checked_1
##    <chr>      <chr>                       <dbl>     <dbl>
##  1 blackberry appearance: fresh            4.70      5.80
##  2 blackberry appearance: goodcolor        4.63      5.77
##  3 blackberry appearance: goodquality      4.69      5.96
##  4 blackberry appearance: goodshapre       4.93      5.86
##  5 blackberry appearance: misshapen        5.63      4.92
##  6 blackberry appearance: none             5.42      4.78
##  7 blackberry appearance: notfresh         5.57      3.76
##  8 blackberry appearance: unevencolor      5.53      4.53
##  9 blackberry appearane: bruised           5.53      4.67
## 10 blackberry taste: berry                 4.21      6.49
## # ℹ 75 more rows
…
## [1] "long text with many underscores"

You can add multiple sets of patterns and replacements to str_replace_all() using a named list: c("pattern1" = "replace1", "pattern2" = "replace2". This is useful to, for instance, fix multiple typos like “goodshapre”. Unlike the case_when() example we showed before, you can fix typos that occur anywhere in the text, even if they’re only parts of a word.

berry_penalty_analysis_data %>%
  select(-count) %>%
  pivot_wider(names_from = checked,
              values_from = penalty_lift,
              names_prefix = "checked_") %>%
  mutate(cata_variable = str_replace_all(cata_variable,
                                         c("shapre" = "shape",
                                           "appearane" = "appearance",
                                           "_" = " ")))

## # A tibble: 85 × 4
##    berry      cata_variable          checked_0 checked_1
##    <chr>      <chr>                      <dbl>     <dbl>
##  1 blackberry appearance fresh            4.70      5.80
##  2 blackberry appearance goodcolor        4.63      5.77
##  3 blackberry appearance goodquality      4.69      5.96
##  4 blackberry appearance goodshape        4.93      5.86
##  5 blackberry appearance misshapen        5.63      4.92
##  6 blackberry appearance none             5.42      4.78
##  7 blackberry appearance notfresh         5.57      3.76
##  8 blackberry appearance unevencolor      5.53      4.53
##  9 blackberry appearance bruised          5.53      4.67
## 10 blackberry taste berry                 4.21      6.49
## # ℹ 75 more rows
…
## [1] " NO color"      " NO ne"         "cor NO nthecob" "a NO de"

#Or it can be useful for fixing lots of similar problems all at once
berry_penalty_analysis_data %>%
  select(-count) %>%
  pivot_wider(names_from = checked,
              values_from = penalty_lift,
              names_prefix = "checked_") %>%
  mutate(cata_variable = str_replace_all(cata_variable,
                                         c("not" = "not ",
                                           "good" = "good ",
                                           "uneven" = "uneven ",
                                           "_" = " ")))

## # A tibble: 85 × 4
##    berry      cata_variable           checked_0 checked_1
##    <chr>      <chr>                       <dbl>     <dbl>
##  1 blackberry appearance fresh             4.70      5.80
##  2 blackberry appearance good color        4.63      5.77
##  3 blackberry appearance good quality      4.69      5.96
##  4 blackberry appearance good shapre       4.93      5.86
##  5 blackberry appearance misshapen         5.63      4.92
##  6 blackberry appearance none              5.42      4.78
##  7 blackberry appearance not fresh         5.57      3.76
##  8 blackberry appearance uneven color      5.53      4.53
##  9 blackberry appearane bruised            5.53      4.67
## 10 blackberry taste berry                  4.21      6.49
## # ℹ 75 more rows
…
You can try changing the searched string in the above code to see if it recognizes your email or how many numbers you can get it to recognize. Usually, though, your plot labels aren’t in full sentences in your data frame. Simpler regular expressions can still save you a lot of work:

berry_penalty_analysis_data %>%
  select(-count) %>%
  pivot_wider(names_from = checked,
              values_from = penalty_lift,
              names_prefix = "checked_") %>%
  mutate(cata_variable = str_replace(cata_variable,
                                     "^(.).*_(.*)",
                                     "\\2 (\\1)"),
         cata_variable = str_to_title(cata_variable))

## # A tibble: 85 × 4
##    berry      cata_variable   checked_0 checked_1
##    <chr>      <chr>               <dbl>     <dbl>
##  1 blackberry Fresh (A)            4.70      5.80
##  2 blackberry Goodcolor (A)        4.63      5.77
##  3 blackberry Goodquality (A)      4.69      5.96
##  4 blackberry Goodshapre (A)       4.93      5.86
##  5 blackberry Misshapen (A)        5.63      4.92
##  6 blackberry None (A)             5.42      4.78
##  7 blackberry Notfresh (A)         5.57      3.76
##  8 blackberry Unevencolor (A)      5.53      4.53
##  9 blackberry Bruised (A)          5.53      4.67
## 10 blackberry Berry (T)            4.21      6.49
## # ℹ 75 more rows
…
Note that the attribute you list first when you’re specifying the levels will become 1, then 2, then 3. With coord_flip(), that puts it at the bottom of the plot.

long_cider_manual_factors %>%
  distinct(cata_variable) %>%
  mutate(variable_number = as.numeric(cata_variable))

## # A tibble: 22 × 2
##    cata_variable variable_number
##    <fct>                   <dbl>
##  1 Fresh_Apples               10
##  2 Fermented                  17
##  3 Herbal                     13
##  4 Dry                         5
##  5 Spice                      12
##  6 Fruity                      8
##  7 Smooth                      4
##  8 Alcohol                    22
##  9 Light                       7
## 10 Sweet                       1
## # ℹ 12 more rows
…
