2 How to work with R | An introduction to text analysis with R for sensory and consumer scientists
…
Each line represents a row of data, and each field is separated by a comma (,). We can read this kind of data into R by using the read_csv() function.

read_csv(file = "data/ba_2002.csv")

## Rows: 20359 Columns: 14
## ── Column specification ────────────────────────────────────────────────────────
## Delimiter: ","
## chr (5): reviews, beer_name, brewery_name, style, user_id
## dbl (9): beer_id, brewery_id, abv, appearance, aroma, palate, taste, overall...
## 
## ℹ Use `spec()` to retrieve the full column specification for this data.
## ℹ Specify the column types or set `show_col_types = FALSE` to quiet this message.

## # A tibble: 20,359 × 14
##    reviews         beer_name beer_id brewery_name brewery_id style   abv user_id
##    <chr>           <chr>       <dbl> <chr>             <dbl> <chr> <dbl> <chr>  
##  1 This is a very… Caffrey'…     825 Thomas Caff…        297 Iris…   3.8 jisurf…
##  2 Great head cre… Caffrey'…     825 Thomas Caff…        297 Iris…   3.8 allbou…
##  3 Wow what a dif… Caffrey'…     825 Thomas Caff…        297 Iris…   3.8 frank4…
##  4 Tried this one… Caffrey'…     825 Thomas Caff…        297 Iris…   3.8 beergl…
##  5 Caffrey's on-t… Caffrey'…     825 Thomas Caff…        297 Iris…   3.8 proc.1…
##  6 The nitro can … Caffrey'…     825 Thomas Caff…        297 Iris…   3.8 zerk.4…
##  7 Nitro can...Ty… Caffrey'…     825 Thomas Caff…        297 Iris…   3.8 adr.263
##  8 Excellent pour… Caffrey'…     825 Thomas Caff…        297 Iris…   3.8 dogbri…
##  9 A very good Ir… Caffrey'…     825 Thomas Caff…        297 Iris…   3.8 goindo…
## 10 Looks very nic… Caffrey'…     825 Thomas Caff…        297 Iris…   3.8 irishr…
## # ℹ 20,349 more rows
## # ℹ 6 more variables: appearance <dbl>, aroma <dbl>, palate <dbl>, taste <dbl>,
## #   overall <dbl>, rating <dbl>
…
## # A tibble: 5 × 1
##   reviews                                                                       
##   <chr>                                                                         
## 1 This is a very good Irish ale. I'm not sure if it would be considered a cream…
## 2 Great head creation and retention from the Nitro can. A pinky finger width he…
## 3 Wow what a different brew in England. I still am not a huge fan but the brew …
## 4 Tried this one in a steak house. Pours a light reddish colour topped by a thi…
## 5 Caffrey's on-tap is less creamy than the nitro can, but seems to be more subs…

If we only want to subset on a specific dimension and get everything from the other dimension, we just leave it blank.

beer_data[, 2] # get all rows of the 2nd column

## # A tibble: 20,359 × 1
##    beer_name          
##    <chr>              
##  1 Caffrey's Irish Ale
##  2 Caffrey's Irish Ale
##  3 Caffrey's Irish Ale
##  4 Caffrey's Irish Ale
##  5 Caffrey's Irish Ale
##  6 Caffrey's Irish Ale
##  7 Caffrey's Irish Ale
##  8 Caffrey's Irish Ale
##  9 Caffrey's Irish Ale
## 10 Caffrey's Irish Ale
## # ℹ 20,349 more rows

We can also use logical subsetting, just like in vectors. This is very powerful but a bit complicated, so we are going to introduce some tidyverse based operators to do this that will make it a lot easier. I will just give an example:

beer_data[beer_data$rating > 4.5, ] # get all rows for which rating > 3

## # A tibble: 1,952 × 14
##    reviews         beer_name beer_id brewery_name brewery_id style   abv user_id
##    <chr>           <chr>       <dbl> <chr>             <dbl> <chr> <dbl> <chr>  
##  1 I must agree w… Old Engi…     875 Harviestoun…        323 Engl…   6   viking…
##  2 I had this bee… Schiehal…    6438 Harviestoun…        323 Euro…   4.8 thelon…
##  3 Haven't found … Deuchars…    2389 The Caledon…        188 Engl…   4.4 freed.…
##  4 Once again had… Deuchars…    2389 The Caledon…        188 Engl…   4.4 mark.65
##  5 Hazy (bottle c… Edinburg…    6466 The Caledon…        188 Scot…   6.4 nerofi…
##  6 The first time… McEwan's…     911 The Caledon…        188 Engl…   4.7 jdhilt…
##  7 The brew pours… McEwan's…    1275 The Caledon…        188 Scot…   8   murph.…
##  8 Deep dark brow… McEwan's…    1275 The Caledon…        188 Scot…   8   zap.184
##  9 Clear deep sca… Traquair…      36 Traquair Ho…         24 Scot…   7.2 bighug…
## 10 Reddish brown … Traquair…      36 Traquair Ho…         24 Scot…   7.2 mjohn2…
## # ℹ 1,942 more rows
## # ℹ 6 more variables: appearance <dbl>, aroma <dbl>, palate <dbl>, taste <dbl>,
## #   overall <dbl>, rating <dbl>
…
