2 Importing and wrangling data | Publication-quality data visualizations using the R tidyverse
…
Each line represents a row of data, and each field is separated by a comma (,). We can read this kind of data into R by using the read_csv() function (this is a nicer version of the default read.csv() function, and we get access to it by loading tidyverse with library(tidyverse)).

read_csv(file = "data/clt-berry-data.csv")

## Rows: 7507 Columns: 92
## ── Column specification ────────────────────────────────────────────────────────
## Delimiter: ","
## chr  (7): Start Time (UTC), End Time (UTC), Sample Name, verbal_likes, verba...
## dbl (83): Subject Code, Participant Name, Serving Position, Sample Identifie...
## lgl  (2): Gender, Age
## 
## ℹ Use `spec()` to retrieve the full column specification for this data.
## ℹ Specify the column types or set `show_col_types = FALSE` to quiet this message.

## # A tibble: 7,507 × 92
##    `Subject Code` `Participant Name` Gender Age   `Start Time (UTC)`
##             <dbl>              <dbl> <lgl>  <lgl> <chr>             
##  1           1001               1001 NA     NA    6/13/2019 21:05   
##  2           1001               1001 NA     NA    6/13/2019 20:55   
##  3           1001               1001 NA     NA    6/13/2019 20:49   
##  4           1001               1001 NA     NA    6/13/2019 20:45   
##  5           1001               1001 NA     NA    6/13/2019 21:00   
##  6           1001               1001 NA     NA    6/13/2019 21:10   
##  7           1002               1002 NA     NA    6/13/2019 20:08   
##  8           1002               1002 NA     NA    6/13/2019 19:57   
##  9           1002               1002 NA     NA    6/13/2019 20:13   
## 10           1002               1002 NA     NA    6/13/2019 20:03   
## # ℹ 7,497 more rows
## # ℹ 87 more variables: `End Time (UTC)` <chr>, `Serving Position` <dbl>,
## #   `Sample Identifier` <dbl>, `Sample Name` <chr>, `9pt_appearance` <dbl>,
## #   pre_expectation <dbl>, jar_color <dbl>, jar_gloss <dbl>, jar_size <dbl>,
## #   cata_appearance_unevencolor <dbl>, cata_appearance_misshapen <dbl>,
## #   cata_appearance_creased <dbl>, cata_appearance_seedy <dbl>,
## #   cata_appearance_bruised <dbl>, cata_appearance_notfresh <dbl>, …

read_csv(file = "data/CiderDryness_SensoryDATA.csv")

## Rows: 288 Columns: 27
## ── Column specification ────────────────────────────────────────────────────────
## Delimiter: ","
## chr  (3): Sample_Name, Temperature, Panelist_Code
## dbl (24): MerlynScale_Ranking, Fresh_Apples, Fermented, Herbal, Dry, Spice, ...
## 
## ℹ Use `spec()` to retrieve the full column specification for this data.
## ℹ Specify the column types or set `show_col_types = FALSE` to quiet this message.

## # A tibble: 288 × 27
##    Sample_Name Temperature Panelist_Code MerlynScale_Ranking Fresh_Apples
##    <chr>       <chr>       <chr>                       <dbl>        <dbl>
##  1 1911 Est.   Chilled     001                           2.3            1
##  2 Buskey      Chilled     001                           3.5            1
##  3 Eden        Chilled     001                           2.8            0
##  4 1911 Est.   RT          001                           4.2            0
##  5 Buskey      RT          001                           2              0
##  6 Eden        RT          001                           4              0
##  7 1911 Est.   Chilled     002                           3              1
##  8 Buskey      Chilled     002                           3.3            0
##  9 Eden        Chilled     002                           3.5            1
## 10 1911 Est.   RT          002                           4.5            0
## # ℹ 278 more rows
## # ℹ 22 more variables: Fermented <dbl>, Herbal <dbl>, Dry <dbl>, Spice <dbl>,
## #   Fruity <dbl>, Smooth <dbl>, Alcohol <dbl>, Light <dbl>, Sweet <dbl>,
## #   Woody <dbl>, Berries <dbl>, Sour <dbl>, Funky <dbl>, FullBodied <dbl>,
## #   Metallic <dbl>, Floral <dbl>, Candy <dbl>, Bitter <dbl>, Vomit <dbl>,
## #   Earthy <dbl>, Synthetic <dbl>, Liking <dbl>
…
If you’re at all familiar with R, you will have learned about subsetting R objects like lists and data frames using operators like [ or [[ and logical comparisons like x < 10. If you are used to code conventions, this is a great system! However, for people who are less familiar with coding, these are often difficult to parse and to remember. So in this workshop we’re going to assume you’ve been exposed to this information, and we’re not going to use or focus on it very much; instead, we’re going to look at the tools within the tidyverse that accomplish the same things in–we think!–a much easier to parse and remember fashion.

2.3.1 The “pipe” for multiple steps in a workflow: %>%

While I am not going to go over much of the base R syntax, I want to talk about one particular tool that is becoming standard in modern R coding: the pipe, which is written in tidyverse as %>%. This garbage-looking set of symbols is actually your best friend, you just don’t know it yet. I use this tool constantly in my R programming.

OK, enough background, what the heck is a pipe? The term “pipe” comes from what it does: like a pipe, %>% lets whatever is on its left side flow through to the right hand side. It is easiest to read %>% as “AND THEN”.

raw_berry_data %>%                         # Start with the berry_data
  filter(berry == "blackberry") %>%        # AND THEN filter to blackberries
  select(`Sample Name`,                    # AND THEN select sample name, overall liking...
         contains("_overall"), 
         contains("cata_"))

## # A tibble: 1,495 × 40
##    `Sample Name` `9pt_overall` us_overall lms_overall cata_appearance_unevenco…¹
##    <chr>                 <dbl>      <dbl>       <dbl>                      <dbl>
##  1 Blackberry 4              2         NA          NA                          0
##  2 Blackberry 2              5         NA          NA                          0
##  3 Blackberry 1              8         NA          NA                          0
##  4 Blackberry 3              6         NA          NA                          0
##  5 Blackberry 5              8         NA          NA                          0
##  6 Blackberry 4              6         NA          NA                          0
##  7 Blackberry 2              1         NA          NA                          0
##  8 Blackberry 1              8         NA          NA                          0
##  9 Blackberry 3              8         NA          NA                          0
## 10 Blackberry 5              8         NA          NA                          0
## # ℹ 1,485 more rows
## # ℹ abbreviated name: ¹​cata_appearance_unevencolor
## # ℹ 35 more variables: cata_appearance_misshapen <dbl>,
## #   cata_appearance_creased <dbl>, cata_appearance_seedy <dbl>,
## #   cata_appearance_bruised <dbl>, cata_appearance_notfresh <dbl>,
## #   cata_appearance_fresh <dbl>, cata_appearance_goodshape <dbl>,
## #   cata_appearance_goodquality <dbl>, cata_appearance_none <dbl>, …
…
At this point, we’ve gotten data into R and applied some tools to select and filter only relevant variables and observations. However, we often find that our raw data needs to be actively transformed for analysis. We might find that we need to do simple operations like calculate new quantities based on our raw measurements, convert units, or create new indicator variables. All of these operations require us to look at existing variables and create new variables based on those existing variables/columns.

We also might notice that we are storing our data in a format that doesn’t work for us. You might be familiar with the idea of pivot tables, especially from Excel. We often find that our data is in “wide” format when we need it to be “long”, or vice-versa. While this seems different from creating new variables, pivoting operations also look at the structure of data (how cells are created at the intersection of rows and columns) to create new rows or new columns.

2.3.3.1 Creating new columns: mutate()

Let’s start with the simpler operation: creating new columns (variables) based on existing ones.

We do this above in our workflow mutate(). Often, we want to create a new column temporarily, or to combine several existing columns. We can do this using the mutate() function. Let’s (for the moment) only consider the 9-pt hedonic scale, and create a variable that tells us whether the rating is higher than some cutoff (say 6/9, a common cutoff).

berry_columns %>%
  select(berry, sample, `9pt_overall`) %>%  # we select these for easy printing
  mutate(good = `9pt_overall` > 6)

## # A tibble: 7,507 × 4
##    berry     sample `9pt_overall` good 
##    <chr>      <dbl>         <dbl> <lgl>
##  1 raspberry      6             4 FALSE
##  2 raspberry      5             9 TRUE 
##  3 raspberry      2             3 FALSE
##  4 raspberry      3             7 TRUE 
##  5 raspberry      4             4 FALSE
##  6 raspberry      1             4 FALSE
##  7 raspberry      6             4 FALSE
##  8 raspberry      5             7 TRUE 
##  9 raspberry      2             7 TRUE 
## 10 raspberry      3             9 TRUE 
## # ℹ 7,497 more rows
…
We have overwitten our original variables with rescaled versions of the LAM and unstructured scales. Now our values are commensurate.

NB: Sometimes we want to simultaneously select() and mutate() columns; the transmute() function is a simple wrapper for both of these operations combined and is quite useful for longer and more complex workflows. The .keep argument of mutate() can also be used to keep a subset of columns, rather than the whole tibble.

2.3.3.2 Pivoting: pivot_longer()/pivot_wider()

A key concept motivating the tidyverse is the idea of “tidy” data, which is typically also tied to the ability to move between “long” and “wide” data. Typically, tidy data means data that is “long”, although I don’t know if I am convinced that it is an exact 1-to-1 map.

Frequently, sensory data is recorded “wide”, with experimental units in rows and all of the measured or observed variables on those experimental units in the columns. Our cider data is a great example:

raw_cider_data

## # A tibble: 288 × 27
##    Sample_Name Temperature Panelist_Code MerlynScale_Ranking Fresh_Apples
##    <chr>       <chr>       <chr>                       <dbl>        <dbl>
##  1 1911 Est.   Chilled     001                           2.3            1
##  2 Buskey      Chilled     001                           3.5            1
##  3 Eden        Chilled     001                           2.8            0
##  4 1911 Est.   RT          001                           4.2            0
##  5 Buskey      RT          001                           2              0
##  6 Eden        RT          001                           4              0
##  7 1911 Est.   Chilled     002                           3              1
##  8 Buskey      Chilled     002                           3.3            0
##  9 Eden        Chilled     002                           3.5            1
## 10 1911 Est.   RT          002                           4.5            0
## # ℹ 278 more rows
## # ℹ 22 more variables: Fermented <dbl>, Herbal <dbl>, Dry <dbl>, Spice <dbl>,
## #   Fruity <dbl>, Smooth <dbl>, Alcohol <dbl>, Light <dbl>, Sweet <dbl>,
## #   Woody <dbl>, Berries <dbl>, Sour <dbl>, Funky <dbl>, FullBodied <dbl>,
## #   Metallic <dbl>, Floral <dbl>, Candy <dbl>, Bitter <dbl>, Vomit <dbl>,
## #   Earthy <dbl>, Synthetic <dbl>, Liking <dbl>

We describe the experimental units in the first 3 columns: Sample_Name, Temperature, and Panelist_Code define a single serving/sample. The rest of the columns describe the measurements or observations we made on that single serving. According to the principles of tidy data, the column names themselves define a sort of meta-variable: what are we recording? We can make this data tidy (and long) by instead storing that meta-variable in one column and the actual measurement in another.

The pivot_*() functions are the tools to accomplish this. They are remarkably simple and powerful tools for transforming data from wide to long (and vice-versa) as the analysis demands.

long_cider_data <- 
  raw_cider_data %>%
  pivot_longer(cols = Fresh_Apples:Synthetic,
               names_to = "cata_variable",
               values_to = "checked")

long_cider_data

## # A tibble: 6,336 × 7
##    Sample_Name Temperature Panelist_Code MerlynScale_Ranking Liking
##    <chr>       <chr>       <chr>                       <dbl>  <dbl>
##  1 1911 Est.   Chilled     001                           2.3      6
##  2 1911 Est.   Chilled     001                           2.3      6
##  3 1911 Est.   Chilled     001                           2.3      6
##  4 1911 Est.   Chilled     001                           2.3      6
##  5 1911 Est.   Chilled     001                           2.3      6
##  6 1911 Est.   Chilled     001                           2.3      6
##  7 1911 Est.   Chilled     001                           2.3      6
##  8 1911 Est.   Chilled     001                           2.3      6
##  9 1911 Est.   Chilled     001                           2.3      6
## 10 1911 Est.   Chilled     001                           2.3      6
## # ℹ 6,326 more rows
## # ℹ 2 more variables: cata_variable <chr>, checked <dbl>
…
Here, we actually left MerlynScale_Ranking and Liking out of our pivot_longer() because they are going to be dependent variables for our penalty analysis.

We also used a pivot_longer() in our berry workflow.

long_berry_data <- 
  berry_columns %>%
  pivot_longer(cols = contains("overall"),
               names_to = "hedonic_scale",
               values_to = "rating",
               values_drop_na = TRUE)

long_berry_data %>%
  select(berry, sample, hedonic_scale, rating)

## # A tibble: 7,507 × 4
##    berry     sample hedonic_scale rating
##    <chr>      <dbl> <chr>          <dbl>
##  1 raspberry      6 9pt_overall        4
##  2 raspberry      5 9pt_overall        9
##  3 raspberry      2 9pt_overall        3
##  4 raspberry      3 9pt_overall        7
##  5 raspberry      4 9pt_overall        4
##  6 raspberry      1 9pt_overall        4
##  7 raspberry      6 9pt_overall        4
##  8 raspberry      5 9pt_overall        7
##  9 raspberry      2 9pt_overall        7
## 10 raspberry      3 9pt_overall        9
## # ℹ 7,497 more rows
We used the tool a little differently here, however: we wanted to pull all of our hedonic rating data into a single place, note the use of contains() in our pivot_longer() selection. Since each subject only used one hedonic scale in an occasion, our overall data table had blocks of NA values throughout it; we dropped the NA values when pivoting. Now we have longer data that gives us one column for an overall hedonic rating, and another (nominal) column that tells us which scale that value originally came from.

Did you notice that we actually pivoted longer twice? The goal of this particular workflow was to produce a penalty analysis, and to do that we are treating the CATA and the hedonic ratings as qualitatively different kinds of outcomes: essentially, CATA becomes the independent variable for this analysis, and hedonic liking becomes the observed outcome. Therefore, we couldn’t pivot all at once. Instead, we first gathered our (now commensurate) ratings using a first pivot, and then gathered our CATA variables using a second.

long_berry_data <- 
  long_berry_data %>%
  pivot_longer(starts_with("cata_"),
               names_to = "cata_variable",
               values_to = "checked",
               names_prefix = "cata_",
               values_drop_na = TRUE)

long_berry_data

## # A tibble: 159,741 × 7
##    `Subject Code` berry     sample hedonic_scale rating cata_variable    checked
##             <dbl> <chr>      <dbl> <chr>          <dbl> <chr>              <dbl>
##  1           1001 raspberry      6 9pt_overall        4 appearance_unev…       0
##  2           1001 raspberry      6 9pt_overall        4 appearance_miss…       1
##  3           1001 raspberry      6 9pt_overall        4 appearance_crea…       0
##  4           1001 raspberry      6 9pt_overall        4 appearance_seedy       0
##  5           1001 raspberry      6 9pt_overall        4 appearance_brui…       0
##  6           1001 raspberry      6 9pt_overall        4 appearance_notf…       1
##  7           1001 raspberry      6 9pt_overall        4 appearance_fresh       0
##  8           1001 raspberry      6 9pt_overall        4 appearance_good…       0
##  9           1001 raspberry      6 9pt_overall        4 appearance_good…       0
## 10           1001 raspberry      6 9pt_overall        4 appearance_none        0
## # ℹ 159,731 more rows

Here, notice we once again drop NA values because some CATA variables only applied to some berries (e.g., raspberries had different CATA attributes than strawberries, natch). We also used a shortcut in pivot_longer() to remove the "cata_" prefix from each CATA variable name, purely to make them more readable.

While we don’t use pivot_wider() in the flow above, it does the opposite of pivot_longer(): provided with a column of ID variables (like the CATA variables) and a column containing observations, it produces a wider, less tidy data frame. This is most frequently useful when getting data ready for some kind of multivariate analysis, like a regression or SVD. We can see the effects on our long cider data.

long_cider_data %>%
  pivot_wider(names_from = cata_variable,
              values_from = checked)

## # A tibble: 288 × 27
##    Sample_Name Temperature Panelist_Code MerlynScale_Ranking Liking Fresh_Apples
##    <chr>       <chr>       <chr>                       <dbl>  <dbl>        <dbl>
##  1 1911 Est.   Chilled     001                           2.3      6            1
##  2 Buskey      Chilled     001                           3.5      7            1
##  3 Eden        Chilled     001                           2.8      4            0
##  4 1911 Est.   RT          001                           4.2      2            0
##  5 Buskey      RT          001                           2        7            0
##  6 Eden        RT          001                           4        5            0
##  7 1911 Est.   Chilled     002                           3        8            1
##  8 Buskey      Chilled     002                           3.3      6            0
##  9 Eden        Chilled     002                           3.5      7            1
## 10 1911 Est.   RT          002                           4.5      3            0
## # ℹ 278 more rows
## # ℹ 21 more variables: Fermented <dbl>, Herbal <dbl>, Dry <dbl>, Spice <dbl>,
## #   Fruity <dbl>, Smooth <dbl>, Alcohol <dbl>, Light <dbl>, Sweet <dbl>,
## #   Woody <dbl>, Berries <dbl>, Sour <dbl>, Funky <dbl>, FullBodied <dbl>,
## #   Metallic <dbl>, Floral <dbl>, Candy <dbl>, Bitter <dbl>, Vomit <dbl>,
## #   Earthy <dbl>, Synthetic <dbl>
…
