5 Text Analysis | An introduction to text analysis with R for sensory and consumer scientists
…
beer_data_tokenized <-
  beer_data %>%
  # We may want to keep track of a unique ID for each review
  mutate(review_id = row_number()) %>%
  unnest_tokens(output = token,
                input = cleaned_review,
                token = "words") %>%
  # Here we do a bit of extra cleaning
  mutate(token = str_remove_all(token, "\\.|_"))

beer_data_tokenized %>%
  # We show just a few of the columns for printing's sake
  select(beer_name, rating, token)

## # A tibble: 1,770,136 × 3
##    beer_name           rating token
##    <chr>                <dbl> <chr>
##  1 Caffrey's Irish Ale   4.46 this 
##  2 Caffrey's Irish Ale   4.46 is   
##  3 Caffrey's Irish Ale   4.46 a    
##  4 Caffrey's Irish Ale   4.46 very 
##  5 Caffrey's Irish Ale   4.46 good 
##  6 Caffrey's Irish Ale   4.46 irish
##  7 Caffrey's Irish Ale   4.46 ale  
##  8 Caffrey's Irish Ale   4.46 i'm  
##  9 Caffrey's Irish Ale   4.46 not  
## 10 Caffrey's Irish Ale   4.46 sure 
## # … with 1,770,126 more rows
## # ℹ Use `print(n = ...)` to see more rows
…
In order to make what we’re doing easier to follow, let’s also take a look at our example data.

cleaned_reviews_tokenized <- 
  cleaned_reviews_example %>%
  unnest_tokens(input = cleaned_review, output = token) %>%
  # Here we do a bit of extra cleaning
  mutate(token = str_remove_all(token, "\\.|_"))

cleaned_reviews_tokenized %>%
  filter(beer_name == "Kozel") %>%
  # Let's select a few variables for printing
  select(beer_name, rating, token)

## # A tibble: 187 × 3
##    beer_name rating token    
##    <chr>      <dbl> <chr>    
##  1 Kozel       4.25 a        
##  2 Kozel       4.25 truly    
##  3 Kozel       4.25 good     
##  4 Kozel       4.25 authentic
##  5 Kozel       4.25 pilsner  
##  6 Kozel       4.25 bordering
##  7 Kozel       4.25 on       
##  8 Kozel       4.25 great    
##  9 Kozel       4.25 this     
## 10 Kozel       4.25 is       
## # … with 177 more rows
## # ℹ Use `print(n = ...)` to see more rows
…
Unfortunately for our first hypothesis, we have quickly encountered a common problem in token-based text analysis. The most frequent words in most languages are “helper” words that are necessary for linguistic structure and communication, but are not unique to a particular topic or context. For example, in English the articles a, and the tend to be the most frequent tokens in any text because they are so ubiquitous.

It takes us until the 15th most frequent word, head, to find a word that might have sensory or product implications.

So, in order to find meaning in our text, we need to find some way to look past these terms, whose frequency vastly outnumbers words we are actually interested in.

5.2.1.1 “stop words”

In computational linguistics, this kind of word is often called a stop word: a word that is functionally important but does not tell us much about the meaning of the text. There are many common lists of such stop words, and in fact the tidytext package provides one such list in the stop_words tibble:

stop_words

## # A tibble: 1,149 × 2
##    word        lexicon
##    <chr>       <chr>  
##  1 a           SMART  
##  2 a's         SMART  
##  3 able        SMART  
##  4 about       SMART  
##  5 above       SMART  
##  6 according   SMART  
##  7 accordingly SMART  
##  8 across      SMART  
##  9 actually    SMART  
## 10 after       SMART  
## # … with 1,139 more rows
## # ℹ Use `print(n = ...)` to see more rows
…
Now we are able to address our very first hypothesis: while the most common term (beer) might be in fact a stop word for this data set, the next 11 top terms all seem to have quite a lot to do with flavor.

We can extend this approach just a bit to provide the start of one answer to our second question: are there different most-used flavor terms for different beer styles? We can start to tackle this by first defining a couple of categories (since there are a lot of different styles in this dataset):

beer_data %>%
  count(style)

## # A tibble: 99 × 2
##    style                              n
##    <chr>                          <int>
##  1 Altbier                          186
##  2 American Adjunct Lager           961
##  3 American Amber / Red Ale         653
##  4 American Amber / Red Lager       235
##  5 American Barleywine              187
##  6 American Black Ale                10
##  7 American Blonde Ale              251
##  8 American Brown Ale               166
##  9 American Dark Wheat Ale           11
## 10 American Double / Imperial IPA   151
## # … with 89 more rows
## # ℹ Use `print(n = ...)` to see more rows
…
Machine learning: just throw algebra at the problem! (via XKCD)

While these state-of-the-art approaches are outside of the scope of this workshop, older techniques that use pre-defined dictionaries of sentiment words are easy to implement with a tidy text format, and can be very useful for the basic exploration of text data. These have been used in recent publications to great effect, such as in the recent paper from Luc et al. (2020).

The tidytext package includes the sentiments tibble by default, which is a version of that published by Hu & Liu (2004).

sentiments

## # A tibble: 6,786 × 2
##    word        sentiment
##    <chr>       <chr>    
##  1 2-faces     negative 
##  2 abnormal    negative 
##  3 abolish     negative 
##  4 abominable  negative 
##  5 abominably  negative 
##  6 abominate   negative 
##  7 abomination negative 
##  8 abort       negative 
##  9 aborted     negative 
## 10 aborts      negative 
## # … with 6,776 more rows
## # ℹ Use `print(n = ...)` to see more rows
…
This is a very commonly used lexicon, which has shown to perform reasonably well on online-review based texts. The tidytext package also gives easy access to a few other lexicons through the get_sentiment() function, which may prompt for downloading some of the lexicons in order to avoid copyright issues. For the purpose of this workshop, we’ll just work with the sentiments tibble, which can also be accessed using get_sentiment("bing").

The structure of tidy data with tokens makes it very easy to use these dictionary-based sentiment analysis approaches. To do so, all we need to do is use a left_join() function, which is similar to the anti_join() function we used for stop words. In this case, for data tables X and Y, left_join(X, Y) finds rows in Y that match X, and imports all the columns from Y for those matches.

beer_sentiments <- 
  beer_data_tokenized %>%
  left_join(sentiments, by = c("token" = "word"))

beer_sentiments %>%
  select(review_id, beer_name, style, rating, token, sentiment)

## # A tibble: 1,770,138 × 6
##    review_id beer_name           style         rating token sentiment
##        <int> <chr>               <chr>          <dbl> <chr> <chr>    
##  1         1 Caffrey's Irish Ale irish red ale   4.46 this  <NA>     
##  2         1 Caffrey's Irish Ale irish red ale   4.46 is    <NA>     
##  3         1 Caffrey's Irish Ale irish red ale   4.46 a     <NA>     
##  4         1 Caffrey's Irish Ale irish red ale   4.46 very  <NA>     
##  5         1 Caffrey's Irish Ale irish red ale   4.46 good  positive 
##  6         1 Caffrey's Irish Ale irish red ale   4.46 irish <NA>     
##  7         1 Caffrey's Irish Ale irish red ale   4.46 ale   <NA>     
##  8         1 Caffrey's Irish Ale irish red ale   4.46 i'm   <NA>     
##  9         1 Caffrey's Irish Ale irish red ale   4.46 not   <NA>     
## 10         1 Caffrey's Irish Ale irish red ale   4.46 sure  <NA>     
## # … with 1,770,128 more rows
## # ℹ Use `print(n = ...)` to see more rows
It is immediately apparent how sparse the sentiment lexicons are compared to our actual data. This is one key problem with dictionary-based approaches–we often don’t have application- or domain-specific lexicons, and the lexicons that exist are often not well calibrated to our data.

We can perform a simple count() and group_by() operation to get a rough sentiment score.

sentiment_ratings <- 
  beer_sentiments %>%
  count(review_id, sentiment) %>%
  drop_na() %>%
  group_by(review_id) %>%
  pivot_wider(names_from = sentiment, values_from = n, values_fill = 0) %>%
  mutate(sentiment = positive - negative)

sentiment_ratings

## # A tibble: 20,328 × 4
## # Groups:   review_id [20,328]
##    review_id negative positive sentiment
##        <int>    <int>    <int>     <int>
##  1         1        1        9         8
##  2         2        3        4         1
##  3         3        1        6         5
##  4         4        1        5         4
##  5         5        0        1         1
##  6         6        1        4         3
##  7         7        1        9         8
##  8         8        1        1         0
##  9         9        0        5         5
## 10        10        3        3         0
## # … with 20,318 more rows
## # ℹ Use `print(n = ...)` to see more rows
…
5.4 Text Analysis Pt. IV: n-gram models

An obvious and valid critique of sentiment analysis as implemented above is the focus on single words, or unigrams. It is very clear that English (and most languages) have levels of meaning that go beyond the single word, so focusing our analysis on single words as are tokens/observations will lose some (or a lot!) of meaning. It is common in modern text analysis to look at units beyond the single word: bi-, tri-, or n-grams, for example, or so-called “skipgrams” for the popular and powerful word2vec family of algorithms. Tools like convolutional and recursive neural networks will look at larger chunks of texts, combined in different ways.

Let’s take a look at bigrams in our data-set: tokens that are made up of 2 adjacent words. We can get them using the same unnest_tokens() function, but with the request to get token = "ngrams" and the number of tokens set to n = 2.

beer_bigrams <- 
  beer_data %>%
  unnest_tokens(output = bigram, input = cleaned_review, token = "ngrams", n = 2)

beer_bigrams %>%
  filter(review_id == 1) %>%
  select(beer_name, bigram)

## # A tibble: 115 × 2
##    beer_name           bigram    
##    <chr>               <chr>     
##  1 Caffrey's Irish Ale this is   
##  2 Caffrey's Irish Ale is a      
##  3 Caffrey's Irish Ale a very    
##  4 Caffrey's Irish Ale very good 
##  5 Caffrey's Irish Ale good irish
##  6 Caffrey's Irish Ale irish ale 
##  7 Caffrey's Irish Ale ale i'm   
##  8 Caffrey's Irish Ale i'm not   
##  9 Caffrey's Irish Ale not sure  
## 10 Caffrey's Irish Ale sure if   
## # … with 105 more rows
## # ℹ Use `print(n = ...)` to see more rows

We can see that, in this first review, we already have a bigram with strong semantic content: not sure should tell us that looking only at the unigram sure will give us misleading results.

We can use some more tidyverse helpers to get a better idea of the scale of the problem. The separate() function breaks one character vector into multiple columns, according to whatever separating characters you specify.

beer_bigrams %>%
  separate(col = bigram, into = c("word1", "word2"), sep = " ") %>%
  # Now we will first filter for bigrams starting with "not"
  filter(word1 == "not") %>%
  # And then we'll count up the most frequent pairs of negated biterms
  count(word1, word2) %>%
  arrange(-n)

## # A tibble: 1,298 × 3
##    word1 word2     n
##    <chr> <chr> <int>
##  1 not   a      1511
##  2 not   as      777
##  3 not   much    709
##  4 not   bad     522
##  5 not   too     473
##  6 not   the     376
##  7 not   quite   310
##  8 not   to      283
##  9 not   very    260
## 10 not   sure    251
## # … with 1,288 more rows
## # ℹ Use `print(n = ...)` to see more rows

We can see that the 4th most frequent pair is “not bad”, which means that bad, classified as a negative token in the sentiments tibble, is actually being overcounted as negative in our simple unigram analysis.

We can actually look more closely at this with just a little bit more wrangling:

beer_bigrams %>%
  separate(col = bigram, into = c("word1", "word2"), sep = " ") %>%
  filter(word1 == "not") %>%
  inner_join(sentiments, by = c("word2" = "word")) %>%
  count(word1, word2, sort = TRUE)

## # A tibble: 303 × 3
##    word1 word2            n
##    <chr> <chr>        <int>
##  1 not   bad            522
##  2 not   enough         111
##  3 not   overwhelming   104
##  4 not   great           90
##  5 not   worth           73
##  6 not   good            65
##  7 not   like            65
##  8 not   outstanding     46
##  9 not   bitter          44
## 10 not   overbearing     43
## # … with 293 more rows
## # ℹ Use `print(n = ...)` to see more rows
…
