5 Text Analysis I: Fundamentals | An introduction to text analysis with R for sensory and consumer scientists
…
beer_data_tokenized <-
  beer_data %>%
  # We may want to keep track of a unique ID for each review
  mutate(review_id = row_number()) %>%
  unnest_tokens(output = token,
                input = cleaned_review,
                token = "words") %>%
  # Here we do a bit of extra cleaning
  mutate(token = str_remove_all(token, "\\.|_"))

beer_data_tokenized %>%
  # We show just a few of the columns for printing's sake
  select(beer_name, rating, token)

## # A tibble: 1,770,136 × 3
##    beer_name           rating token
##    <chr>                <dbl> <chr>
##  1 Caffrey's Irish Ale   4.46 this 
##  2 Caffrey's Irish Ale   4.46 is   
##  3 Caffrey's Irish Ale   4.46 a    
##  4 Caffrey's Irish Ale   4.46 very 
##  5 Caffrey's Irish Ale   4.46 good 
##  6 Caffrey's Irish Ale   4.46 irish
##  7 Caffrey's Irish Ale   4.46 ale  
##  8 Caffrey's Irish Ale   4.46 i'm  
##  9 Caffrey's Irish Ale   4.46 not  
## 10 Caffrey's Irish Ale   4.46 sure 
## # … with 1,770,126 more rows
## # ℹ Use `print(n = ...)` to see more rows
…
In order to make what we’re doing easier to follow, let’s also take a look at our example data.

cleaned_reviews_tokenized <- 
  cleaned_reviews_example %>%
  unnest_tokens(input = cleaned_review, output = token) %>%
  # Here we do a bit of extra cleaning
  mutate(token = str_remove_all(token, "\\.|_"))

cleaned_reviews_tokenized %>%
  filter(beer_name == "Kozel") %>%
  # Let's select a few variables for printing
  select(beer_name, rating, token)

## # A tibble: 187 × 3
##    beer_name rating token    
##    <chr>      <dbl> <chr>    
##  1 Kozel       4.25 a        
##  2 Kozel       4.25 truly    
##  3 Kozel       4.25 good     
##  4 Kozel       4.25 authentic
##  5 Kozel       4.25 pilsner  
##  6 Kozel       4.25 bordering
##  7 Kozel       4.25 on       
##  8 Kozel       4.25 great    
##  9 Kozel       4.25 this     
## 10 Kozel       4.25 is       
## # … with 177 more rows
## # ℹ Use `print(n = ...)` to see more rows
…
