6 Text Analysis II: Term Frequency Approaches | An introduction to text analysis with R for sensory and consumer scientists
…
Unfortunately for our first hypothesis, we have quickly encountered a common problem in token-based text analysis. The most frequent words in most languages are “helper” words that are necessary for linguistic structure and communication, but are not unique to a particular topic or context. For example, in English the articles a, and the tend to be the most frequent tokens in any text because they are so ubiquitous.

It takes us until the 15th most frequent word, head, to find a word that might have sensory or product implications.

So, in order to find meaning in our text, we need to find some way to look past these terms, whose frequency vastly outnumbers words we are actually interested in.

6.2.1 “stop words”

In computational linguistics, this kind of word is often called a stop word: a word that is functionally important but does not tell us much about the meaning of the text. There are many common lists of such stop words, and in fact the tidytext package provides one such list in the stop_words tibble:

stop_words

## # A tibble: 1,149 × 2
##    word        lexicon
##    <chr>       <chr>  
##  1 a           SMART  
##  2 a's         SMART  
##  3 able        SMART  
##  4 about       SMART  
##  5 above       SMART  
##  6 according   SMART  
##  7 accordingly SMART  
##  8 across      SMART  
##  9 actually    SMART  
## 10 after       SMART  
## # … with 1,139 more rows
## # ℹ Use `print(n = ...)` to see more rows
…
Now we are able to address our very first hypothesis: while the most common term (beer) might be in fact a stop word for this data set, the next 11 top terms all seem to have quite a lot to do with flavor.

We can extend this approach just a bit to provide the start of one answer to our second question: are there different most-used flavor terms for different beer styles? We can start to tackle this by first defining a couple of categories (since there are a lot of different styles in this dataset):

beer_data %>%
  count(style)

## # A tibble: 99 × 2
##    style                              n
##    <chr>                          <int>
##  1 Altbier                          186
##  2 American Adjunct Lager           961
##  3 American Amber / Red Ale         653
##  4 American Amber / Red Lager       235
##  5 American Barleywine              187
##  6 American Black Ale                10
##  7 American Blonde Ale              251
##  8 American Brown Ale               166
##  9 American Dark Wheat Ale           11
## 10 American Double / Imperial IPA   151
## # … with 89 more rows
## # ℹ Use `print(n = ...)` to see more rows
…
