3 The basics of plotting with ggplot2 | Publication-quality data visualizations using the R tidyverse
…
The ggplot() function takes two arguments that are essential, as well as some others you’ll rarely use. The first, data =, is straightforward, and you’ll usually be passing data to the function at the end of some pipeline using %>%

The second, mapping =, is less clear. This argument requires the aes() function, which can be read as the “aesthetic” function. The way that this function works is quite complex, and really not worth digging into here, but I understand it in my head as telling ggplot() what part of my data is going to connect to what part of the plot. So, if we write aes(x = MerlynScale_Ranking), we can read this in our heads as “the values of x will be mapped from the ‘MerlynScale_Ranking’ column”.

This sentence tells us the other important thing about ggplot() and the aes() mappings: mapped variables each have to be in their own column. This is another reason that ggplot() requires tidy data.

3.3 Adding layers with geom_*() functions

In the above example, we added (literally, using +) a function called geom_point() to the base ggplot() call. This is functionally a “layer” of our plot, that tells ggplot2 how to actually visualize the elements specified in the aes() function–in the case of geom_point(), we create a point for each row’s combination of x = MerlynScale_Ranking and y = Liking.

raw_cider_data %>%
  select(MerlynScale_Ranking, Liking)

## # A tibble: 288 × 2
##    MerlynScale_Ranking Liking
##                  <dbl>  <dbl>
##  1                 2.3      6
##  2                 3.5      7
##  3                 2.8      4
##  4                 4.2      2
##  5                 2        7
##  6                 4        5
##  7                 3        8
##  8                 3.3      6
##  9                 3.5      7
## 10                 4.5      3
## # ℹ 278 more rows
…
