3 Wrangling data with tidyverse: Rows, Columns, and Groups | An introduction to R for sensory and consumer scientists
…
So, for example, we might want to determine whether there are differences in liking between the berries, test days, or scales, in which case perhaps we only want the columns starting with us_, lms_, and 9pt_ along with berry and test_day. We learned previously that we can do this with numeric indexing:

berry_data[, c(10,25,28,45,56:64,81,89:91)]

## # A tibble: 7,507 × 17
##    `9pt_appearance` `9pt_overall` `9pt_taste` `9pt_texture` test_day       
##               <dbl>         <dbl>       <dbl>         <dbl> <chr>          
##  1                4             4           4             6 Raspberry Day 1
##  2                8             9           9             8 Raspberry Day 1
##  3                4             3           3             2 Raspberry Day 1
##  4                7             7           6             8 Raspberry Day 1
##  5                7             4           3             5 Raspberry Day 1
##  6                7             4           3             6 Raspberry Day 1
##  7                6             4           4             6 Raspberry Day 1
##  8                8             7           4             9 Raspberry Day 1
##  9                8             7           6             8 Raspberry Day 1
## 10                7             9           9             7 Raspberry Day 1
## # ℹ 7,497 more rows
## # ℹ 12 more variables: us_appearance <dbl>, us_overall <dbl>, us_taste <dbl>,
## #   us_texture <dbl>, lms_appearance <dbl>, lms_overall <dbl>, lms_taste <dbl>,
## #   lms_texture <dbl>, `9pt_aroma` <dbl>, us_aroma <dbl>, lms_aroma <dbl>,
## #   berry <chr>

However, this is both difficult for novices to R and difficult to read if you are not intimately familiar with the data. It is also rather fragile–what if someone else rearranged the data in your import file? You’re just selecting columns by their order, so column 91 is not guaranteed to contain the berry type every time. Not to mention all of the counting was annoying!

Subsetting using names is a little more stable, but still not that readable and takes a lot of typing.

berry_data[, c("9pt_aroma","9pt_overall","9pt_taste","9pt_texture","9pt_appearance",
               "lms_aroma","lms_overall","lms_taste","lms_texture","lms_appearance",
               "us_aroma","us_overall","us_taste","us_texture","us_appearance",
               "berry","test_day")]

## # A tibble: 7,507 × 17
##    `9pt_aroma` `9pt_overall` `9pt_taste` `9pt_texture` `9pt_appearance`
##          <dbl>         <dbl>       <dbl>         <dbl>            <dbl>
##  1          NA             4           4             6                4
##  2          NA             9           9             8                8
##  3          NA             3           3             2                4
##  4          NA             7           6             8                7
##  5          NA             4           3             5                7
##  6          NA             4           3             6                7
##  7          NA             4           4             6                6
##  8          NA             7           4             9                8
##  9          NA             7           6             8                8
## 10          NA             9           9             7                7
## # ℹ 7,497 more rows
## # ℹ 12 more variables: lms_aroma <dbl>, lms_overall <dbl>, lms_taste <dbl>,
## #   lms_texture <dbl>, lms_appearance <dbl>, us_aroma <dbl>, us_overall <dbl>,
## #   us_taste <dbl>, us_texture <dbl>, us_appearance <dbl>, berry <chr>,
## #   test_day <chr>

The select() function in tidyverse (actually from the dplyr package) is the smarter, easier way to do this. It works on data frames, and it can be read as “select() the columns from <data frame> that meet the criteria we’ve set.”

select(<data frame>, <column 1>, <column 2>, ...)

The simplest way to use select() is just to name the columns you want!

select(berry_data, berry, test_day,
       lms_aroma, lms_overall, lms_taste, lms_texture, lms_appearance) # note the lack of quoting on the column names

## # A tibble: 7,507 × 7
##    berry     test_day lms_aroma lms_overall lms_taste lms_texture lms_appearance
##    <chr>     <chr>        <dbl>       <dbl>     <dbl>       <dbl>          <dbl>
##  1 raspberry Raspber…        NA          NA        NA          NA             NA
##  2 raspberry Raspber…        NA          NA        NA          NA             NA
##  3 raspberry Raspber…        NA          NA        NA          NA             NA
##  4 raspberry Raspber…        NA          NA        NA          NA             NA
##  5 raspberry Raspber…        NA          NA        NA          NA             NA
##  6 raspberry Raspber…        NA          NA        NA          NA             NA
##  7 raspberry Raspber…        NA          NA        NA          NA             NA
##  8 raspberry Raspber…        NA          NA        NA          NA             NA
##  9 raspberry Raspber…        NA          NA        NA          NA             NA
## 10 raspberry Raspber…        NA          NA        NA          NA             NA
## # ℹ 7,497 more rows
…
Getting rid of the double quotes we previously saw around "column names" can have some consequences, though. R variable names can only contain letters, numbers, and underscores (_), no spaces ( ) or dashes (-), and can’t start with numbers, but the tidyverse will let you make column names that break these rules. So if you try to do the exact same thing as before to get the data from the 9-point hedonic scale instead of the labeled magnitude scale:

 # this will cause an error
select(berry_data, berry, test_day,
       9pt_aroma, 9pt_overall, 9pt_taste, 9pt_texture, 9pt_appearance)

You’ll run into an error. The solution to this is a different kind of quote called a backtick (`) which is usually next to the number 1 key in the very top left of QWERTY (US and UK) keyboards. On QWERTZ and AZERTY keyboards, it may be next to the backspace key or one of the alternate characters made by the 7 key. Look at this guide for help finding it in common international keyboard layouts.

select(berry_data, berry, test_day, # these "syntactic" column names don't need escaping
       `9pt_aroma`, # only ones starting with numbers...
       `9pt_overall`, `9pt_taste`, `9pt_texture`, `9pt_appearance`,
       `Sample Name`) # or containing spaces

## # A tibble: 7,507 × 8
##    berry     test_day        `9pt_aroma` `9pt_overall` `9pt_taste` `9pt_texture`
##    <chr>     <chr>                 <dbl>         <dbl>       <dbl>         <dbl>
##  1 raspberry Raspberry Day 1          NA             4           4             6
##  2 raspberry Raspberry Day 1          NA             9           9             8
##  3 raspberry Raspberry Day 1          NA             3           3             2
##  4 raspberry Raspberry Day 1          NA             7           6             8
##  5 raspberry Raspberry Day 1          NA             4           3             5
##  6 raspberry Raspberry Day 1          NA             4           3             6
##  7 raspberry Raspberry Day 1          NA             4           4             6
##  8 raspberry Raspberry Day 1          NA             7           4             9
##  9 raspberry Raspberry Day 1          NA             7           6             8
## 10 raspberry Raspberry Day 1          NA             9           9             7
## # ℹ 7,497 more rows
## # ℹ 2 more variables: `9pt_appearance` <dbl>, `Sample Name` <chr>

The backticks are only necessary when a column name breaks one of the variable-naming rules, and RStudio will usually fill them in for you if you use tab autocompletion when writing your select() and other tidyverse functions.

You can also use select() with a number of helper functions, which use logic to select columns that meet whatever conditions you set. For example, the starts_with() helper function lets us give a set of characters we want columns to start with:

select(berry_data, starts_with("lms_")) #the double-quotes are back because this isn't a full column name

## # A tibble: 7,507 × 5
##    lms_appearance lms_overall lms_taste lms_texture lms_aroma
##             <dbl>       <dbl>     <dbl>       <dbl>     <dbl>
##  1             NA          NA        NA          NA        NA
##  2             NA          NA        NA          NA        NA
##  3             NA          NA        NA          NA        NA
##  4             NA          NA        NA          NA        NA
##  5             NA          NA        NA          NA        NA
##  6             NA          NA        NA          NA        NA
##  7             NA          NA        NA          NA        NA
##  8             NA          NA        NA          NA        NA
##  9             NA          NA        NA          NA        NA
## 10             NA          NA        NA          NA        NA
## # ℹ 7,497 more rows

There are equivalents for the end of column names (ends_with()) and text found anywhere in the name (contains()).

You can combine these statements together to get subsets of columns however you want:

select(berry_data, starts_with("lms_"), starts_with("9pt_"), starts_with("us_"),
       berry, test_day)

## # A tibble: 7,507 × 17
##    lms_appearance lms_overall lms_taste lms_texture lms_aroma `9pt_appearance`
##             <dbl>       <dbl>     <dbl>       <dbl>     <dbl>            <dbl>
##  1             NA          NA        NA          NA        NA                4
##  2             NA          NA        NA          NA        NA                8
##  3             NA          NA        NA          NA        NA                4
##  4             NA          NA        NA          NA        NA                7
##  5             NA          NA        NA          NA        NA                7
##  6             NA          NA        NA          NA        NA                7
##  7             NA          NA        NA          NA        NA                6
##  8             NA          NA        NA          NA        NA                8
##  9             NA          NA        NA          NA        NA                8
## 10             NA          NA        NA          NA        NA                7
## # ℹ 7,497 more rows
## # ℹ 11 more variables: `9pt_overall` <dbl>, `9pt_taste` <dbl>,
## #   `9pt_texture` <dbl>, `9pt_aroma` <dbl>, us_appearance <dbl>,
## #   us_overall <dbl>, us_taste <dbl>, us_texture <dbl>, us_aroma <dbl>,
## #   berry <chr>, test_day <chr>

select(berry_data, starts_with("jar_"), ends_with("_overall"),
       berry, test_day)

## # A tibble: 7,507 × 15
##    jar_color jar_gloss jar_size jar_sweetness jar_tartness jar_firmness
##        <dbl>     <dbl>    <dbl>         <dbl>        <dbl>        <dbl>
##  1         2         4        2             2            4            3
##  2         3         3        3             3            3            3
##  3         2         2        3             2            3            4
##  4         2         3        4             3            3            2
##  5         4         3        3             2            4            4
##  6         4         3        3             1            5            3
##  7         2         4        4             1            4            3
##  8         3         3        3             1            4            3
##  9         3         4        5             1            4            3
## 10         2         4        3             3            3            2
## # ℹ 7,497 more rows
## # ℹ 9 more variables: jar_juciness <dbl>, jar_crispness <dbl>,
## #   jar_juiciness <dbl>, jar_crunch <dbl>, `9pt_overall` <dbl>,
## #   us_overall <dbl>, lms_overall <dbl>, berry <chr>, test_day <chr>

If you’re annoyed at the order that your columns are printing in and how far to the right you have to scroll in your previews, select() can also be used to rearrange your columns with a helper function called everything():

select(berry_data, everything()) #This selects everything--it doesn't change at all.

## # A tibble: 7,507 × 92
##    `Subject Code` `Participant Name` Gender Age   `Start Time (UTC)`
##             <dbl>              <dbl> <lgl>  <lgl> <chr>             
##  1           1001               1001 NA     NA    6/13/2019 21:05   
##  2           1001               1001 NA     NA    6/13/2019 20:55   
##  3           1001               1001 NA     NA    6/13/2019 20:49   
##  4           1001               1001 NA     NA    6/13/2019 20:45   
##  5           1001               1001 NA     NA    6/13/2019 21:00   
##  6           1001               1001 NA     NA    6/13/2019 21:10   
##  7           1002               1002 NA     NA    6/13/2019 20:08   
##  8           1002               1002 NA     NA    6/13/2019 19:57   
##  9           1002               1002 NA     NA    6/13/2019 20:13   
## 10           1002               1002 NA     NA    6/13/2019 20:03   
## # ℹ 7,497 more rows
## # ℹ 87 more variables: `End Time (UTC)` <chr>, `Serving Position` <dbl>,
## #   `Sample Identifier` <dbl>, `Sample Name` <chr>, `9pt_appearance` <dbl>,
## #   pre_expectation <dbl>, jar_color <dbl>, jar_gloss <dbl>, jar_size <dbl>,
## #   cata_appearance_unevencolor <dbl>, cata_appearance_misshapen <dbl>,
## #   cata_appearance_creased <dbl>, cata_appearance_seedy <dbl>,
## #   cata_appearance_bruised <dbl>, cata_appearance_notfresh <dbl>, …

select(berry_data, berry, contains("_overall"),
       everything()) #only type the columns you want to move to the front, and everything() will keep the rest

## # A tibble: 7,507 × 92
##    berry  `9pt_overall` us_overall lms_overall `Subject Code` `Participant Name`
##    <chr>          <dbl>      <dbl>       <dbl>          <dbl>              <dbl>
##  1 raspb…             4         NA          NA           1001               1001
##  2 raspb…             9         NA          NA           1001               1001
##  3 raspb…             3         NA          NA           1001               1001
##  4 raspb…             7         NA          NA           1001               1001
##  5 raspb…             4         NA          NA           1001               1001
##  6 raspb…             4         NA          NA           1001               1001
##  7 raspb…             4         NA          NA           1002               1002
##  8 raspb…             7         NA          NA           1002               1002
##  9 raspb…             7         NA          NA           1002               1002
## 10 raspb…             9         NA          NA           1002               1002
## # ℹ 7,497 more rows
## # ℹ 86 more variables: Gender <lgl>, Age <lgl>, `Start Time (UTC)` <chr>,
## #   `End Time (UTC)` <chr>, `Serving Position` <dbl>,
## #   `Sample Identifier` <dbl>, `Sample Name` <chr>, `9pt_appearance` <dbl>,
## #   pre_expectation <dbl>, jar_color <dbl>, jar_gloss <dbl>, jar_size <dbl>,
## #   cata_appearance_unevencolor <dbl>, cata_appearance_misshapen <dbl>,
## #   cata_appearance_creased <dbl>, cata_appearance_seedy <dbl>, …

everything() can be very useful for programming, but if you just need to rearrange an even easier function is relocate(), which moves whatever columns you specify to the “left” or “right” of the data.frame; you can even get more specific and move to the left or right of specific columns:

# By default relocate() moves the selected column(s) to the left of the data.frame
relocate(berry_data, us_overall)

## # A tibble: 7,507 × 92
##    us_overall `Subject Code` `Participant Name` Gender Age   `Start Time (UTC)`
##         <dbl>          <dbl>              <dbl> <lgl>  <lgl> <chr>             
##  1         NA           1001               1001 NA     NA    6/13/2019 21:05   
##  2         NA           1001               1001 NA     NA    6/13/2019 20:55   
##  3         NA           1001               1001 NA     NA    6/13/2019 20:49   
##  4         NA           1001               1001 NA     NA    6/13/2019 20:45   
##  5         NA           1001               1001 NA     NA    6/13/2019 21:00   
##  6         NA           1001               1001 NA     NA    6/13/2019 21:10   
##  7         NA           1002               1002 NA     NA    6/13/2019 20:08   
##  8         NA           1002               1002 NA     NA    6/13/2019 19:57   
##  9         NA           1002               1002 NA     NA    6/13/2019 20:13   
## 10         NA           1002               1002 NA     NA    6/13/2019 20:03   
## # ℹ 7,497 more rows
## # ℹ 86 more variables: `End Time (UTC)` <chr>, `Serving Position` <dbl>,
## #   `Sample Identifier` <dbl>, `Sample Name` <chr>, `9pt_appearance` <dbl>,
## #   pre_expectation <dbl>, jar_color <dbl>, jar_gloss <dbl>, jar_size <dbl>,
## #   cata_appearance_unevencolor <dbl>, cata_appearance_misshapen <dbl>,
## #   cata_appearance_creased <dbl>, cata_appearance_seedy <dbl>,
## #   cata_appearance_bruised <dbl>, cata_appearance_notfresh <dbl>, …

# ".before/.after = " specify a position relative to another column
relocate(berry_data, `Subject Code`, .before = Gender)

## # A tibble: 7,507 × 92
##    `Participant Name` `Subject Code` Gender Age   `Start Time (UTC)`
##                 <dbl>          <dbl> <lgl>  <lgl> <chr>             
##  1               1001           1001 NA     NA    6/13/2019 21:05   
##  2               1001           1001 NA     NA    6/13/2019 20:55   
##  3               1001           1001 NA     NA    6/13/2019 20:49   
##  4               1001           1001 NA     NA    6/13/2019 20:45   
##  5               1001           1001 NA     NA    6/13/2019 21:00   
##  6               1001           1001 NA     NA    6/13/2019 21:10   
##  7               1002           1002 NA     NA    6/13/2019 20:08   
##  8               1002           1002 NA     NA    6/13/2019 19:57   
##  9               1002           1002 NA     NA    6/13/2019 20:13   
## 10               1002           1002 NA     NA    6/13/2019 20:03   
## # ℹ 7,497 more rows
## # ℹ 87 more variables: `End Time (UTC)` <chr>, `Serving Position` <dbl>,
## #   `Sample Identifier` <dbl>, `Sample Name` <chr>, `9pt_appearance` <dbl>,
## #   pre_expectation <dbl>, jar_color <dbl>, jar_gloss <dbl>, jar_size <dbl>,
## #   cata_appearance_unevencolor <dbl>, cata_appearance_misshapen <dbl>,
## #   cata_appearance_creased <dbl>, cata_appearance_seedy <dbl>,
## #   cata_appearance_bruised <dbl>, cata_appearance_notfresh <dbl>, …
…
