3 Wrangling data with tidyverse | An introduction to text analysis with R for sensory and consumer scientists
…
So, for example, we might want to try to reverse engineer the way that the rating is generated from the sub-modalities, in which case perhaps we only want the last 6 columns. We learned previously that we can do this with numeric indexing:

beer_data[, 9:14]

## # A tibble: 20,359 × 6
##    appearance aroma palate taste overall rating
##         <dbl> <dbl>  <dbl> <dbl>   <dbl>  <dbl>
##  1        5     4      4     4.5     5     4.46
##  2        5     3.5    4     3.5     4     3.74
##  3        4     3      3     3.5     3     3.26
##  4        3.5   3.5    3.5   3.5     3.5   3.5 
##  5        4     3      4     4.5     3.5   3.86
##  6        4     3      2.5   3       3.5   3.11
##  7        3.5   3.5    4     3.5     3.5   3.55
##  8        4     3      3     3       3     3.06
##  9        4     4      4     4       4     4   
## 10        4     3      3.5   3       3.5   3.21
## # … with 20,349 more rows
## # ℹ Use `print(n = ...)` to see more rows

However, this is both difficult for novices to R and difficult to read if you are not intimately familiar with the data. It is also rather fragile–what if someone else rearranged the data in your import file? You’re just selecting the last 6 columns, which are not guaranteed to contain the rating data you’re interested in.

The select() function in tidyverse (actually from the dplyr package) is the smarter, easier way to do this. It works on data frames, and it can be read as “from <data frame>, select the columns that meet the criteria we’ve set.”

select(<data frame>, <column 1>, <column 2>, ...)

The simplest way to use select() is just to name the columns you want!

select(beer_data, appearance, aroma, palate, taste, overall, rating) # note the lack of quoting on the column names

## # A tibble: 20,359 × 6
##    appearance aroma palate taste overall rating
##         <dbl> <dbl>  <dbl> <dbl>   <dbl>  <dbl>
##  1        5     4      4     4.5     5     4.46
##  2        5     3.5    4     3.5     4     3.74
##  3        4     3      3     3.5     3     3.26
##  4        3.5   3.5    3.5   3.5     3.5   3.5 
##  5        4     3      4     4.5     3.5   3.86
##  6        4     3      2.5   3       3.5   3.11
##  7        3.5   3.5    4     3.5     3.5   3.55
##  8        4     3      3     3       3     3.06
##  9        4     4      4     4       4     4   
## 10        4     3      3.5   3       3.5   3.21
## # … with 20,349 more rows
## # ℹ Use `print(n = ...)` to see more rows

This is much clearer to the reader.

You can also use select() with a number of helper functions, which use logic to select columns that meet whatever conditions you set. For example, the starts_with() helper function lets us give a set of characters we want columns to start with:

select(beer_data, starts_with("beer"))

## # A tibble: 20,359 × 2
##    beer_name           beer_id
##    <chr>                 <dbl>
##  1 Caffrey's Irish Ale     825
##  2 Caffrey's Irish Ale     825
##  3 Caffrey's Irish Ale     825
##  4 Caffrey's Irish Ale     825
##  5 Caffrey's Irish Ale     825
##  6 Caffrey's Irish Ale     825
##  7 Caffrey's Irish Ale     825
##  8 Caffrey's Irish Ale     825
##  9 Caffrey's Irish Ale     825
## 10 Caffrey's Irish Ale     825
## # … with 20,349 more rows
## # ℹ Use `print(n = ...)` to see more rows

There are equivalents for the end of column names (ends_with()) and text found anywhere in the name (contains()).

You can combine these statements together to get subsets of columns however you want:

select(beer_data, starts_with("beer"), rating, abv)

## # A tibble: 20,359 × 4
##    beer_name           beer_id rating   abv
##    <chr>                 <dbl>  <dbl> <dbl>
##  1 Caffrey's Irish Ale     825   4.46   3.8
##  2 Caffrey's Irish Ale     825   3.74   3.8
##  3 Caffrey's Irish Ale     825   3.26   3.8
##  4 Caffrey's Irish Ale     825   3.5    3.8
##  5 Caffrey's Irish Ale     825   3.86   3.8
##  6 Caffrey's Irish Ale     825   3.11   3.8
##  7 Caffrey's Irish Ale     825   3.55   3.8
##  8 Caffrey's Irish Ale     825   3.06   3.8
##  9 Caffrey's Irish Ale     825   4      3.8
## 10 Caffrey's Irish Ale     825   3.21   3.8
## # … with 20,349 more rows
## # ℹ Use `print(n = ...)` to see more rows

You can also use programmatic logic in select() by using the where() helper function, which gives you the ability to specify columns by any arbitrary function.

select(beer_data, where(~is.numeric(.)))

## # A tibble: 20,359 × 9
##    beer_id brewery_id   abv appearance aroma palate taste overall rating
##      <dbl>      <dbl> <dbl>      <dbl> <dbl>  <dbl> <dbl>   <dbl>  <dbl>
##  1     825        297   3.8        5     4      4     4.5     5     4.46
##  2     825        297   3.8        5     3.5    4     3.5     4     3.74
##  3     825        297   3.8        4     3      3     3.5     3     3.26
##  4     825        297   3.8        3.5   3.5    3.5   3.5     3.5   3.5 
##  5     825        297   3.8        4     3      4     4.5     3.5   3.86
##  6     825        297   3.8        4     3      2.5   3       3.5   3.11
##  7     825        297   3.8        3.5   3.5    4     3.5     3.5   3.55
##  8     825        297   3.8        4     3      3     3       3     3.06
##  9     825        297   3.8        4     4      4     4       4     4   
## 10     825        297   3.8        4     3      3.5   3       3.5   3.21
## # … with 20,349 more rows
## # ℹ Use `print(n = ...)` to see more rows
…
Again, this is not very human readable, and if we reorganize our rows this won’t be useful anymore. The tidyverse answer to this approach is the filter() function, which lets you filter your dataset into specific rows according to data stored in the table itself.

filter(beer_data, abv > 10) # let's get some heavy beers

## # A tibble: 571 × 14
##    reviews     beer_…¹ beer_id brewe…² brewe…³ style   abv user_id appea…⁴ aroma
##    <chr>       <chr>     <dbl> <chr>     <dbl> <chr> <dbl> <chr>     <dbl> <dbl>
##  1 This is a … Thomas…     578 O'Hanl…    1533 Old …  11.7 putnam…     5     5  
##  2 While I a … Thomas…     578 O'Hanl…    1533 Old …  11.7 proc.1…     4.5   4  
##  3 1997. Head… Thomas…     578 O'Hanl…    1533 Old …  11.7 nerofi…     4.5   4.5
##  4 Dark amber… Thomas…     578 O'Hanl…    1533 Old …  11.7 john.1…     4.5   5  
##  5 A brandy c… Thomas…     578 O'Hanl…    1533 Old …  11.7 aracau…     4     3.5
##  6 Presentati… Thomas…     578 O'Hanl…    1533 Old …  11.7 jason.3     4.5   5  
##  7 pours out … Thomas…     578 O'Hanl…    1533 Old …  11.7 budgoo…     5     4  
##  8 I know, I … Thomas…     578 O'Hanl…    1533 Old …  11.7 mophie…     5     5  
##  9 1988 must … Harves…     705 J.W. L…     178 Engl…  11.5 maxpow…     4     3  
## 10 1997 vinta… Harves…     705 J.W. L…     178 Engl…  11.5 suds.3…     4.5   5  
## # … with 561 more rows, 4 more variables: palate <dbl>, taste <dbl>,
## #   overall <dbl>, rating <dbl>, and abbreviated variable names ¹​beer_name,
## #   ²​brewery_name, ³​brewery_id, ⁴​appearance
## # ℹ Use `print(n = ...)` to see more rows, and `colnames()` to see all variable names

When using filter(), we can specify multiple logical conditions. For example, let’s get only Barleywines that are more than 10% ABV. If we wanted only exact matches, we could use the direct == operator:

filter(beer_data, abv > 10, style == "American Barleywine")

## # A tibble: 99 × 14
##    reviews     beer_…¹ beer_id brewe…² brewe…³ style   abv user_id appea…⁴ aroma
##    <chr>       <chr>     <dbl> <chr>     <dbl> <chr> <dbl> <chr>     <dbl> <dbl>
##  1 For me, th… Olde D…    2066 Alley …     711 Amer…  11   mab.734     4     5  
##  2 2000 vinta… Beer L…    3048 Lakefr…     741 Amer…  12.5 bighug…     4     3.5
##  3 A Barleywi… Beer L…    3048 Lakefr…     741 Amer…  12.5 zap.184     4     4  
##  4 Well, Lagu… Olde G…    1579 Laguni…     220 Amer…  10.6 sinist…     4     3  
##  5 Bottle rea… Olde G…    1579 Laguni…     220 Amer…  10.6 bighug…     4.5   4.5
##  6 Presentati… AleSmi…    6646 AleSmi…     396 Amer…  11   jason.3     4     3.5
##  7 This is fo… AleSmi…    6646 AleSmi…     396 Amer…  11   aracau…     4     4  
##  8 It's golde… AleSmi…    6646 AleSmi…     396 Amer…  11   mickey…     4     4  
##  9 The color … John B…   20500 Mad Ri…     266 Amer…  11.4 beerma…     4.5   4.5
## 10 Pours a sl… John B…   20500 Mad Ri…     266 Amer…  11.4 murph.…     4     4  
## # … with 89 more rows, 4 more variables: palate <dbl>, taste <dbl>,
## #   overall <dbl>, rating <dbl>, and abbreviated variable names ¹​beer_name,
## #   ²​brewery_name, ³​brewery_id, ⁴​appearance
## # ℹ Use `print(n = ...)` to see more rows, and `colnames()` to see all variable names

But this won’t return, for example, any beer labeled as an “English Barleywine”.

filter(beer_data, abv > 10, style == "American Barleywine" | style == "English Barleywine")

## # A tibble: 169 × 14
##    reviews     beer_…¹ beer_id brewe…² brewe…³ style   abv user_id appea…⁴ aroma
##    <chr>       <chr>     <dbl> <chr>     <dbl> <chr> <dbl> <chr>     <dbl> <dbl>
##  1 1988 must … Harves…     705 J.W. L…     178 Engl…  11.5 maxpow…     4     3  
##  2 1997 vinta… Harves…     705 J.W. L…     178 Engl…  11.5 suds.3…     4.5   5  
##  3 2000 vinta… Harves…     705 J.W. L…     178 Engl…  11.5 shired…     4.5   5  
##  4 [email&#16… Harves…     705 J.W. L…     178 Engl…  11.5 zap.184     5     5  
##  5 1997. Hazy… Harves…     705 J.W. L…     178 Engl…  11.5 marc77…     5     4.5
##  6 2000 vinta… Harves…     705 J.W. L…     178 Engl…  11.5 bighug…     4.5   4.5
##  7 1999. Pour… Harves…     705 J.W. L…     178 Engl…  11.5 murph.…     5     5  
##  8 Bottle rev… Harves…     705 J.W. L…     178 Engl…  11.5 bierma…     4     4.5
##  9 I must say… Harves…     705 J.W. L…     178 Engl…  11.5 viking…     4     5  
## 10 For me, th… Olde D…    2066 Alley …     711 Amer…  11   mab.734     4     5  
## # … with 159 more rows, 4 more variables: palate <dbl>, taste <dbl>,
## #   overall <dbl>, rating <dbl>, and abbreviated variable names ¹​beer_name,
## #   ²​brewery_name, ³​brewery_id, ⁴​appearance
## # ℹ Use `print(n = ...)` to see more rows, and `colnames()` to see all variable names

In R, the | means Boolean OR, and the & means Boolean AND. We can use these to combine conditions for searching our data table. But this can be a bit tedious. The stringr package, part of tidyverse, gives a lot of utility functions that we can use instead of this effortful searching.

filter(beer_data, abv > 10, str_detect(style, "Barleywine"))

## # A tibble: 169 × 14
##    reviews     beer_…¹ beer_id brewe…² brewe…³ style   abv user_id appea…⁴ aroma
##    <chr>       <chr>     <dbl> <chr>     <dbl> <chr> <dbl> <chr>     <dbl> <dbl>
##  1 1988 must … Harves…     705 J.W. L…     178 Engl…  11.5 maxpow…     4     3  
##  2 1997 vinta… Harves…     705 J.W. L…     178 Engl…  11.5 suds.3…     4.5   5  
##  3 2000 vinta… Harves…     705 J.W. L…     178 Engl…  11.5 shired…     4.5   5  
##  4 [email&#16… Harves…     705 J.W. L…     178 Engl…  11.5 zap.184     5     5  
##  5 1997. Hazy… Harves…     705 J.W. L…     178 Engl…  11.5 marc77…     5     4.5
##  6 2000 vinta… Harves…     705 J.W. L…     178 Engl…  11.5 bighug…     4.5   4.5
##  7 1999. Pour… Harves…     705 J.W. L…     178 Engl…  11.5 murph.…     5     5  
##  8 Bottle rev… Harves…     705 J.W. L…     178 Engl…  11.5 bierma…     4     4.5
##  9 I must say… Harves…     705 J.W. L…     178 Engl…  11.5 viking…     4     5  
## 10 For me, th… Olde D…    2066 Alley …     711 Amer…  11   mab.734     4     5  
## # … with 159 more rows, 4 more variables: palate <dbl>, taste <dbl>,
## #   overall <dbl>, rating <dbl>, and abbreviated variable names ¹​beer_name,
## #   ²​brewery_name, ³​brewery_id, ⁴​appearance
## # ℹ Use `print(n = ...)` to see more rows, and `colnames()` to see all variable names

Here, the str_detect() function searched for any text that contains “Barleywine” in the style column.

3.2 Combining steps with the pipe: %>%

It isn’t hard to imagine a situation in which we want to both select some columns and filter some rows. There are 3 ways we can do this, one of which is going to be the best for most situations.

Let’s imagine we want to get only information about the beers, abv, and rating for stouts

First, we can nest functions:

select(filter(beer_data, str_detect(style, "Stout")), contains("beer"), abv, rating)

## # A tibble: 1,666 × 4
##    beer_name                          beer_id   abv rating
##    <chr>                                <dbl> <dbl>  <dbl>
##  1 Kinmount Willie Oatmeal Stout          149   4.2   3.49
##  2 Kinmount Willie Oatmeal Stout          149   4.2   3.92
##  3 Kinmount Willie Oatmeal Stout          149   4.2   3.43
##  4 Kinmount Willie Oatmeal Stout          149   4.2   2.84
##  5 Kinmount Willie Oatmeal Stout          149   4.2   4.13
##  6 Kinmount Willie Oatmeal Stout          149   4.2   3.95
##  7 Dragonhead Stout                      5781   4     4.43
##  8 Le Coq Imperial Extra Double Stout     438  10     4.53
##  9 Le Coq Imperial Extra Double Stout     438  10     4.07
## 10 Le Coq Imperial Extra Double Stout     438  10     2.93
## # … with 1,656 more rows
## # ℹ Use `print(n = ...)` to see more rows

The problem with this approach is that we have to read it “inside out”. First, filter() will happen and get us only beers that match “Stout” in their style. Then select() will get columns that match “beer” in their names, abv, and rating. Especially as your code gets complicated, this can be very hard to read.

So we might take the second approach: creating intermediates. We might first filter(), store that step somewhere, then select():

beer_stouts <- filter(beer_data, str_detect(style, "Stout"))
select(beer_stouts, contains("beer"), abv, rating)

## # A tibble: 1,666 × 4
##    beer_name                          beer_id   abv rating
##    <chr>                                <dbl> <dbl>  <dbl>
##  1 Kinmount Willie Oatmeal Stout          149   4.2   3.49
##  2 Kinmount Willie Oatmeal Stout          149   4.2   3.92
##  3 Kinmount Willie Oatmeal Stout          149   4.2   3.43
##  4 Kinmount Willie Oatmeal Stout          149   4.2   2.84
##  5 Kinmount Willie Oatmeal Stout          149   4.2   4.13
##  6 Kinmount Willie Oatmeal Stout          149   4.2   3.95
##  7 Dragonhead Stout                      5781   4     4.43
##  8 Le Coq Imperial Extra Double Stout     438  10     4.53
##  9 Le Coq Imperial Extra Double Stout     438  10     4.07
## 10 Le Coq Imperial Extra Double Stout     438  10     2.93
## # … with 1,656 more rows
## # ℹ Use `print(n = ...)` to see more rows
But now we have this intermediate we don’t really need cluttering up our Environment tab. This is fine for a single step, but if you have a lot of steps in your analysis this is going to get old (and confusing) fast. You’ll have to remove a lot of these using the rm() command to keep your code clean.

warning: rm() will permanently delete whatever objects you run it on from your Environment, and you will only be able to restore them by rerunning the code that generated them in the first place.

rm(beer_stouts)

The final method, and what is becoming standard in modern R coding, is the pipe, which is written in tidyverse as %>%. This garbage-looking set of symbols is actually your best friend, you just don’t know it yet. I use this tool constantly in my R programming, but I’ve been avoiding it up to this point because it’s not part of base R (in fact that’s no longer strictly true, but it is kind of complicated at the moment).

OK, enough background, what the heck is a pipe? The term “pipe” comes from what it does: like a pipe, %>% let’s whatever is on it’s left side flow through to the right hand side. It is easiest to read %>% as “AND THEN”.

beer_data %>%                              # Start with the beer_data
  filter(str_detect(style, "Stout")) %>%   # AND THEN filter to stouts
  select(contains("beer"), abv, rating)    # AND THEN select the beer columns, etc

## # A tibble: 1,666 × 4
##    beer_name                          beer_id   abv rating
##    <chr>                                <dbl> <dbl>  <dbl>
##  1 Kinmount Willie Oatmeal Stout          149   4.2   3.49
##  2 Kinmount Willie Oatmeal Stout          149   4.2   3.92
##  3 Kinmount Willie Oatmeal Stout          149   4.2   3.43
##  4 Kinmount Willie Oatmeal Stout          149   4.2   2.84
##  5 Kinmount Willie Oatmeal Stout          149   4.2   4.13
##  6 Kinmount Willie Oatmeal Stout          149   4.2   3.95
##  7 Dragonhead Stout                      5781   4     4.43
##  8 Le Coq Imperial Extra Double Stout     438  10     4.53
##  9 Le Coq Imperial Extra Double Stout     438  10     4.07
## 10 Le Coq Imperial Extra Double Stout     438  10     2.93
## # … with 1,656 more rows
## # ℹ Use `print(n = ...)` to see more rows
…
3.3 Make new columns: mutate()

You hopefully are starting to be excited by the relative ease of doing some things in R with tidyverse that are otherwise a little bit abstruse. Here’s where I think things get really, really cool. The mutate() function creates a new column in the existing dataset.

We can do this easily in base R by setting a new name for a column and using the assign (<-) operator, but this is clumsy. Often, we want to create a new column temporarily, or to combine several existing columns. We can do this using the mutate() function.

Let’s say that we want to create a quick categorical variable that tells us whether a beer was rated as more than the central value (2.5) in the 5-pt rating scale. This is kind of like doing a median split, which we’ll get to in a moment.

We know that we can use filter() to get just the beers with rating > 2.5:

beer_data %>%
  filter(rating > 2.5)

## # A tibble: 18,782 × 14
##    reviews     beer_…¹ beer_id brewe…² brewe…³ style   abv user_id appea…⁴ aroma
##    <chr>       <chr>     <dbl> <chr>     <dbl> <chr> <dbl> <chr>     <dbl> <dbl>
##  1 This is a … Caffre…     825 Thomas…     297 Iris…   3.8 jisurf…     5     4  
##  2 Great head… Caffre…     825 Thomas…     297 Iris…   3.8 allbou…     5     3.5
##  3 Wow what a… Caffre…     825 Thomas…     297 Iris…   3.8 frank4…     4     3  
##  4 Tried this… Caffre…     825 Thomas…     297 Iris…   3.8 beergl…     3.5   3.5
##  5 Caffrey's … Caffre…     825 Thomas…     297 Iris…   3.8 proc.1…     4     3  
##  6 The nitro … Caffre…     825 Thomas…     297 Iris…   3.8 zerk.4…     4     3  
##  7 Nitro can.… Caffre…     825 Thomas…     297 Iris…   3.8 adr.263     3.5   3.5
##  8 Excellent … Caffre…     825 Thomas…     297 Iris…   3.8 dogbri…     4     3  
##  9 A very goo… Caffre…     825 Thomas…     297 Iris…   3.8 goindo…     4     4  
## 10 Looks very… Caffre…     825 Thomas…     297 Iris…   3.8 irishr…     4     3  
## # … with 18,772 more rows, 4 more variables: palate <dbl>, taste <dbl>,
## #   overall <dbl>, rating <dbl>, and abbreviated variable names ¹​beer_name,
## #   ²​brewery_name, ³​brewery_id, ⁴​appearance
## # ℹ Use `print(n = ...)` to see more rows, and `colnames()` to see all variable names
…
