4 Wrangling data with tidyverse: Reshaping and combining tables | An introduction to R for sensory and consumer scientists
…
We can use the pivot_longer() function to change our data to make the implicit variable explicit and to make our data tidier.

berry_data %>%
  select(`Subject Code`, `Sample Name`, berry, starts_with("cata_"), starts_with("9pt")) %>% # for clarity
  pivot_longer(cols = starts_with("cata_"),
               names_prefix = "cata_",
               names_to = "attribute",
               values_to = "presence") -> berry_data_cata_long
#The names_prefix will be *removed* from the start of every column name
#before putting the rest of the name in the `names_to` column

berry_data_cata_long

## # A tibble: 270,252 × 10
##    `Subject Code` `Sample Name` berry `9pt_appearance` `9pt_overall` `9pt_taste`
##             <dbl> <chr>         <chr>            <dbl>         <dbl>       <dbl>
##  1           1001 raspberry 6   rasp…                4             4           4
##  2           1001 raspberry 6   rasp…                4             4           4
##  3           1001 raspberry 6   rasp…                4             4           4
##  4           1001 raspberry 6   rasp…                4             4           4
##  5           1001 raspberry 6   rasp…                4             4           4
##  6           1001 raspberry 6   rasp…                4             4           4
##  7           1001 raspberry 6   rasp…                4             4           4
##  8           1001 raspberry 6   rasp…                4             4           4
##  9           1001 raspberry 6   rasp…                4             4           4
## 10           1001 raspberry 6   rasp…                4             4           4
## # ℹ 270,242 more rows
## # ℹ 4 more variables: `9pt_texture` <dbl>, `9pt_aroma` <dbl>, attribute <chr>,
## #   presence <dbl>

Remember that tibbles and data.frames can only have one data type per column (logical > integer > numeric > character), however! If we have one row for each CATA, JAR, hedonic scale, AND free response question, the value column would have a mixture of different data types. This is why we have to tell pivot_longer() which cols to pull the names and values from.

Now for each unique combination of Sample Name and Subject Code, we have 36 rows, one for each CATA question that was asked. The variables that weren’t listed in the cols argument are just replicated on each of these rows. Each of the 36 rows that represent Subject Code 1001’s CATA responses for raspberry 6 has the same Subject Code, Sample Name, berry, and various 9pt_ ratings as the other 35.

Sometimes we want to have “wider” or “untidy” data. We can use pivot_wider() to reverse the effects of pivot_longer().

berry_data_cata_long %>%
  pivot_wider(names_from = "attribute",
              values_from = "presence",
              names_prefix = "cata_") #pivot_wider *adds* the names_prefix

## # A tibble: 7,507 × 44
##    `Subject Code` `Sample Name` berry `9pt_appearance` `9pt_overall` `9pt_taste`
##             <dbl> <chr>         <chr>            <dbl>         <dbl>       <dbl>
##  1           1001 raspberry 6   rasp…                4             4           4
##  2           1001 raspberry 5   rasp…                8             9           9
##  3           1001 raspberry 2   rasp…                4             3           3
##  4           1001 raspberry 3   rasp…                7             7           6
##  5           1001 raspberry 4   rasp…                7             4           3
##  6           1001 raspberry 1   rasp…                7             4           3
##  7           1002 raspberry 6   rasp…                6             4           4
##  8           1002 raspberry 5   rasp…                8             7           4
##  9           1002 raspberry 2   rasp…                8             7           6
## 10           1002 raspberry 3   rasp…                7             9           9
## # ℹ 7,497 more rows
## # ℹ 38 more variables: `9pt_texture` <dbl>, `9pt_aroma` <dbl>,
## #   cata_appearance_unevencolor <dbl>, cata_appearance_misshapen <dbl>,
## #   cata_appearance_creased <dbl>, cata_appearance_seedy <dbl>,
## #   cata_appearance_bruised <dbl>, cata_appearance_notfresh <dbl>,
## #   cata_appearance_fresh <dbl>, cata_appearance_goodshape <dbl>,
## #   cata_appearance_goodquality <dbl>, cata_appearance_none <dbl>, …
…
demographics <-
  berry_data %>%
  distinct(`Subject Code`) %>%
  mutate(Age = round(rnorm(n(), 45, 6)),
         Gender = ifelse(rbinom(n(), 1, 0.6), "F", "M"),
         Location = sample(state.name, n(), replace = TRUE)) %>%
  rename(ID = `Subject Code`) #To demonstrate how you can manually configure
                              #the columns used to align the datasets

#And now we can join it:
berry_data %>%
  select(-Age, -Gender) %>% #Getting rid of the empty demographic columns first
  left_join(demographics, by = c("Subject Code" = "ID"))

## # A tibble: 7,507 × 93
##    `Subject Code` `Participant Name` `Start Time (UTC)` `End Time (UTC)`
##             <dbl>              <dbl> <chr>              <chr>           
##  1           1001               1001 6/13/2019 21:05    6/13/2019 21:09 
##  2           1001               1001 6/13/2019 20:55    6/13/2019 20:59 
##  3           1001               1001 6/13/2019 20:49    6/13/2019 20:53 
##  4           1001               1001 6/13/2019 20:45    6/13/2019 20:48 
##  5           1001               1001 6/13/2019 21:00    6/13/2019 21:03 
##  6           1001               1001 6/13/2019 21:10    6/13/2019 21:13 
##  7           1002               1002 6/13/2019 20:08    6/13/2019 20:11 
##  8           1002               1002 6/13/2019 19:57    6/13/2019 20:01 
##  9           1002               1002 6/13/2019 20:13    6/13/2019 20:17 
## 10           1002               1002 6/13/2019 20:03    6/13/2019 20:07 
## # ℹ 7,497 more rows
## # ℹ 89 more variables: `Serving Position` <dbl>, `Sample Identifier` <dbl>,
## #   `Sample Name` <chr>, `9pt_appearance` <dbl>, pre_expectation <dbl>,
## #   jar_color <dbl>, jar_gloss <dbl>, jar_size <dbl>,
## #   cata_appearance_unevencolor <dbl>, cata_appearance_misshapen <dbl>,
## #   cata_appearance_creased <dbl>, cata_appearance_seedy <dbl>,
## #   cata_appearance_bruised <dbl>, cata_appearance_notfresh <dbl>, …
…
We do have some repeat participants in the berry tests, because they were allowed to participate for each berry type once. But in online surveys, repeat answers could be a problem necessitating all data removal. Let’s demonstrate how we’d do that with anti_join():

problem_participants <-
  berry_data %>%
  group_by(`Participant Name`) %>%
  summarize(sessions = n_distinct(test_day)) %>%
  filter(sessions > 1)

berry_data %>%
  anti_join(problem_participants)

## Joining with `by = join_by(`Participant Name`)`

## # A tibble: 3,755 × 92
##    `Subject Code` `Participant Name` Gender Age   `Start Time (UTC)`
##             <dbl>              <dbl> <lgl>  <lgl> <chr>             
##  1           1001               1001 NA     NA    6/13/2019 21:05   
##  2           1001               1001 NA     NA    6/13/2019 20:55   
##  3           1001               1001 NA     NA    6/13/2019 20:49   
##  4           1001               1001 NA     NA    6/13/2019 20:45   
##  5           1001               1001 NA     NA    6/13/2019 21:00   
##  6           1001               1001 NA     NA    6/13/2019 21:10   
##  7           1002               1002 NA     NA    6/13/2019 20:08   
##  8           1002               1002 NA     NA    6/13/2019 19:57   
##  9           1002               1002 NA     NA    6/13/2019 20:13   
## 10           1002               1002 NA     NA    6/13/2019 20:03   
## # ℹ 3,745 more rows
## # ℹ 87 more variables: `End Time (UTC)` <chr>, `Serving Position` <dbl>,
## #   `Sample Identifier` <dbl>, `Sample Name` <chr>, `9pt_appearance` <dbl>,
## #   pre_expectation <dbl>, jar_color <dbl>, jar_gloss <dbl>, jar_size <dbl>,
## #   cata_appearance_unevencolor <dbl>, cata_appearance_misshapen <dbl>,
## #   cata_appearance_creased <dbl>, cata_appearance_seedy <dbl>,
## #   cata_appearance_bruised <dbl>, cata_appearance_notfresh <dbl>, …
…
berry_data %>%
  rename(Sample = `Sample Name`,
         Subject = `Participant Name`) %>%
  select(Subject, Sample, everything()) #no more backticks!

## # A tibble: 7,507 × 92
##    Subject Sample      `Subject Code` Gender Age   `Start Time (UTC)`
##      <dbl> <chr>                <dbl> <lgl>  <lgl> <chr>             
##  1    1001 raspberry 6           1001 NA     NA    6/13/2019 21:05   
##  2    1001 raspberry 5           1001 NA     NA    6/13/2019 20:55   
##  3    1001 raspberry 2           1001 NA     NA    6/13/2019 20:49   
##  4    1001 raspberry 3           1001 NA     NA    6/13/2019 20:45   
##  5    1001 raspberry 4           1001 NA     NA    6/13/2019 21:00   
##  6    1001 raspberry 1           1001 NA     NA    6/13/2019 21:10   
##  7    1002 raspberry 6           1002 NA     NA    6/13/2019 20:08   
##  8    1002 raspberry 5           1002 NA     NA    6/13/2019 19:57   
##  9    1002 raspberry 2           1002 NA     NA    6/13/2019 20:13   
## 10    1002 raspberry 3           1002 NA     NA    6/13/2019 20:03   
## # ℹ 7,497 more rows
## # ℹ 86 more variables: `End Time (UTC)` <chr>, `Serving Position` <dbl>,
## #   `Sample Identifier` <dbl>, `9pt_appearance` <dbl>, pre_expectation <dbl>,
## #   jar_color <dbl>, jar_gloss <dbl>, jar_size <dbl>,
## #   cata_appearance_unevencolor <dbl>, cata_appearance_misshapen <dbl>,
## #   cata_appearance_creased <dbl>, cata_appearance_seedy <dbl>,
## #   cata_appearance_bruised <dbl>, cata_appearance_notfresh <dbl>, …

You can also rename by position, but be sure you have the right order and don’t change the input data later:

berry_data %>%
  rename(Subject = 1)

## # A tibble: 7,507 × 92
##    Subject `Participant Name` Gender Age   `Start Time (UTC)` `End Time (UTC)`
##      <dbl>              <dbl> <lgl>  <lgl> <chr>              <chr>           
##  1    1001               1001 NA     NA    6/13/2019 21:05    6/13/2019 21:09 
##  2    1001               1001 NA     NA    6/13/2019 20:55    6/13/2019 20:59 
##  3    1001               1001 NA     NA    6/13/2019 20:49    6/13/2019 20:53 
##  4    1001               1001 NA     NA    6/13/2019 20:45    6/13/2019 20:48 
##  5    1001               1001 NA     NA    6/13/2019 21:00    6/13/2019 21:03 
##  6    1001               1001 NA     NA    6/13/2019 21:10    6/13/2019 21:13 
##  7    1002               1002 NA     NA    6/13/2019 20:08    6/13/2019 20:11 
##  8    1002               1002 NA     NA    6/13/2019 19:57    6/13/2019 20:01 
##  9    1002               1002 NA     NA    6/13/2019 20:13    6/13/2019 20:17 
## 10    1002               1002 NA     NA    6/13/2019 20:03    6/13/2019 20:07 
## # ℹ 7,497 more rows
## # ℹ 86 more variables: `Serving Position` <dbl>, `Sample Identifier` <dbl>,
## #   `Sample Name` <chr>, `9pt_appearance` <dbl>, pre_expectation <dbl>,
## #   jar_color <dbl>, jar_gloss <dbl>, jar_size <dbl>,
## #   cata_appearance_unevencolor <dbl>, cata_appearance_misshapen <dbl>,
## #   cata_appearance_creased <dbl>, cata_appearance_seedy <dbl>,
## #   cata_appearance_bruised <dbl>, cata_appearance_notfresh <dbl>, …

4.3.2 Relocate your columns

If you mutate() columns or just have a big data set with a lot of variables, often you want to move columns around. This is a pain to do with [], but again tidyverse has a utility to move things around easily: relocate().

berry_data %>%
  relocate(`Sample Name`) # giving no other arguments will move to front

## # A tibble: 7,507 × 92
##    `Sample Name` `Subject Code` `Participant Name` Gender Age  
##    <chr>                  <dbl>              <dbl> <lgl>  <lgl>
##  1 raspberry 6             1001               1001 NA     NA   
##  2 raspberry 5             1001               1001 NA     NA   
##  3 raspberry 2             1001               1001 NA     NA   
##  4 raspberry 3             1001               1001 NA     NA   
##  5 raspberry 4             1001               1001 NA     NA   
##  6 raspberry 1             1001               1001 NA     NA   
##  7 raspberry 6             1002               1002 NA     NA   
##  8 raspberry 5             1002               1002 NA     NA   
##  9 raspberry 2             1002               1002 NA     NA   
## 10 raspberry 3             1002               1002 NA     NA   
## # ℹ 7,497 more rows
## # ℹ 87 more variables: `Start Time (UTC)` <chr>, `End Time (UTC)` <chr>,
## #   `Serving Position` <dbl>, `Sample Identifier` <dbl>,
## #   `9pt_appearance` <dbl>, pre_expectation <dbl>, jar_color <dbl>,
## #   jar_gloss <dbl>, jar_size <dbl>, cata_appearance_unevencolor <dbl>,
## #   cata_appearance_misshapen <dbl>, cata_appearance_creased <dbl>,
## #   cata_appearance_seedy <dbl>, cata_appearance_bruised <dbl>, …

You can also use relocate() to specify positions

berry_data %>%
  relocate(Gender, Age, `Subject Code`, `Start Time (UTC)`, `End Time (UTC)`, `Sample Identifier`, .after = berry) # move repetitive and empty columns to the end

## # A tibble: 7,507 × 92
##    `Participant Name` `Serving Position` `Sample Name` `9pt_appearance`
##                 <dbl>              <dbl> <chr>                    <dbl>
##  1               1001                  5 raspberry 6                  4
##  2               1001                  3 raspberry 5                  8
##  3               1001                  2 raspberry 2                  4
##  4               1001                  1 raspberry 3                  7
##  5               1001                  4 raspberry 4                  7
##  6               1001                  6 raspberry 1                  7
##  7               1002                  3 raspberry 6                  6
##  8               1002                  1 raspberry 5                  8
##  9               1002                  4 raspberry 2                  8
## 10               1002                  2 raspberry 3                  7
## # ℹ 7,497 more rows
## # ℹ 88 more variables: pre_expectation <dbl>, jar_color <dbl>, jar_gloss <dbl>,
## #   jar_size <dbl>, cata_appearance_unevencolor <dbl>,
## #   cata_appearance_misshapen <dbl>, cata_appearance_creased <dbl>,
## #   cata_appearance_seedy <dbl>, cata_appearance_bruised <dbl>,
## #   cata_appearance_notfresh <dbl>, cata_appearance_fresh <dbl>,
## #   cata_appearance_goodshape <dbl>, cata_appearance_goodquality <dbl>, …
…
## # A tibble: 0 × 92
## # ℹ 92 variables: Subject Code <dbl>, Participant Name <dbl>, Gender <lgl>,
## #   Age <lgl>, Start Time (UTC) <chr>, End Time (UTC) <chr>,
## #   Serving Position <dbl>, Sample Identifier <dbl>, Sample Name <chr>,
## #   9pt_appearance <dbl>, pre_expectation <dbl>, jar_color <dbl>,
## #   jar_gloss <dbl>, jar_size <dbl>, cata_appearance_unevencolor <dbl>,
## #   cata_appearance_misshapen <dbl>, cata_appearance_creased <dbl>,
## #   cata_appearance_seedy <dbl>, cata_appearance_bruised <dbl>, …

berry_data %>%
  select(`Participant Name`, `Sample Name`, contains("9pt_")) %>%
  drop_na() #Now we get only respondants who answered all 9-point liking questions.

## # A tibble: 600 × 7
##    `Participant Name` `Sample Name` `9pt_appearance` `9pt_overall` `9pt_taste`
##                 <dbl> <chr>                    <dbl>         <dbl>       <dbl>
##  1               2001 Strawberry4                  5             5           4
##  2               2001 Strawberry1                  6             2           2
##  3               2001 Strawberry2                  1             6           6
##  4               2001 Strawberry6                  3             3           2
##  5               2001 Strawberry3                  8             7           8
##  6               2001 Strawberry5                  4             6           6
##  7               2002 Strawberry4                  2             4           3
##  8               2002 Strawberry1                  4             6           7
##  9               2002 Strawberry2                  3             6           6
## 10               2002 Strawberry6                  7             7           8
## # ℹ 590 more rows
## # ℹ 2 more variables: `9pt_texture` <dbl>, `9pt_aroma` <dbl>

Or you may want to remove any columns/variables that have some missing data, which is one of the most common uses of where():

berry_data %>%
  select(where(~none(.x, is.na))) #Only 38 columns with absolutely no missing values.

## # A tibble: 7,507 × 38
##    `Subject Code` `Participant Name` `Start Time (UTC)` `End Time (UTC)`
##             <dbl>              <dbl> <chr>              <chr>           
##  1           1001               1001 6/13/2019 21:05    6/13/2019 21:09 
##  2           1001               1001 6/13/2019 20:55    6/13/2019 20:59 
##  3           1001               1001 6/13/2019 20:49    6/13/2019 20:53 
##  4           1001               1001 6/13/2019 20:45    6/13/2019 20:48 
##  5           1001               1001 6/13/2019 21:00    6/13/2019 21:03 
##  6           1001               1001 6/13/2019 21:10    6/13/2019 21:13 
##  7           1002               1002 6/13/2019 20:08    6/13/2019 20:11 
##  8           1002               1002 6/13/2019 19:57    6/13/2019 20:01 
##  9           1002               1002 6/13/2019 20:13    6/13/2019 20:17 
## 10           1002               1002 6/13/2019 20:03    6/13/2019 20:07 
## # ℹ 7,497 more rows
## # ℹ 34 more variables: `Serving Position` <dbl>, `Sample Identifier` <dbl>,
## #   `Sample Name` <chr>, pre_expectation <dbl>, jar_color <dbl>,
## #   jar_size <dbl>, cata_appearance_unevencolor <dbl>,
## #   cata_appearance_misshapen <dbl>, cata_appearance_notfresh <dbl>,
## #   cata_appearance_fresh <dbl>, cata_appearance_goodquality <dbl>,
## #   cata_appearance_none <dbl>, grid_sweetness <dbl>, grid_tartness <dbl>, …

#This loses all of the liking data.

Both of the above methods guarantee that you will have an output with absolutely no missing data, but may be over-zealous if, say, everyone answered overall liking on one of the three scales and we want to do some work to combine those later. filter() and select() can be combined to do infinitely complex missing value removal.

berry_data %>%
  select(where(~!every(.x, is.na))) %>% #remove columns with no data
  filter(!(is.na(`9pt_aroma`) & is.na(lms_aroma) & is.na(us_aroma)))

## # A tibble: 1,986 × 90
##    `Subject Code` `Participant Name` `Start Time (UTC)` `End Time (UTC)`
##             <dbl>              <dbl> <chr>              <chr>           
##  1           2001               2001 6/24/2019 20:18    6/24/2019 20:22 
##  2           2001               2001 6/24/2019 20:30    6/24/2019 20:35 
##  3           2001               2001 6/24/2019 20:23    6/24/2019 20:28 
##  4           2001               2001 6/24/2019 20:14    6/24/2019 20:17 
##  5           2001               2001 6/24/2019 20:35    6/24/2019 20:39 
##  6           2001               2001 6/24/2019 20:08    6/24/2019 20:13 
##  7           2002               2002 6/24/2019 20:21    6/24/2019 20:25 
##  8           2002               2002 6/24/2019 20:14    6/24/2019 20:17 
##  9           2002               2002 6/24/2019 19:59    6/24/2019 20:04 
## 10           2002               2002 6/24/2019 20:09    6/24/2019 20:13 
## # ℹ 1,976 more rows
## # ℹ 86 more variables: `Serving Position` <dbl>, `Sample Identifier` <dbl>,
## #   `Sample Name` <chr>, `9pt_appearance` <dbl>, pre_expectation <dbl>,
## #   jar_color <dbl>, jar_gloss <dbl>, jar_size <dbl>,
## #   cata_appearance_unevencolor <dbl>, cata_appearance_misshapen <dbl>,
## #   cata_appearance_creased <dbl>, cata_appearance_seedy <dbl>,
## #   cata_appearance_bruised <dbl>, cata_appearance_notfresh <dbl>, …
…
